[11/9/2016 3:28:22 PM] 
[11/9/2016 3:45:11 PM] 
[11/9/2016 4:12:52 PM] 
[11/9/2016 4:36:44 PM] 
[11/9/2016 5:02:55 PM] 
[11/9/2016 5:33:08 PM] 
[11/17/2016 12:50:37 AM]    at System.Runtime.CompilerServices.TaskAwaiter.ThrowForNonSuccess(Task task)
   at System.Runtime.CompilerServices.TaskAwaiter.HandleNonSuccessAndDebuggerNotification(Task task)
   at BananaLib.RestService.LoginQueue.<GetAuthResult>d__68.MoveNext()
--- End of stack trace from previous location where exception was thrown ---
   at System.Runtime.CompilerServices.TaskAwaiter.ThrowForNonSuccess(Task task)
   at System.Runtime.CompilerServices.TaskAwaiter.HandleNonSuccessAndDebuggerNotification(Task task)
   at BananaLib.RestService.LoginQueue.<GetAuthToken>d__70.MoveNext()
[11/17/2016 1:53:32 AM] 
[11/17/2016 2:03:59 AM] 
[11/17/2016 2:05:14 AM] 
[11/17/2016 2:22:03 AM] 
[11/17/2016 2:44:01 AM] 
[11/17/2016 2:48:47 AM] 
[11/17/2016 3:04:28 AM] 
[11/17/2016 3:07:42 AM] 
[11/17/2016 3:22:36 AM]    at System.Runtime.CompilerServices.TaskAwaiter.ThrowForNonSuccess(Task task)
   at System.Runtime.CompilerServices.TaskAwaiter.HandleNonSuccessAndDebuggerNotification(Task task)
   at BananaLib.RestService.LoginQueue.<GetAuthResult>d__68.MoveNext()
--- End of stack trace from previous location where exception was thrown ---
   at System.Runtime.CompilerServices.TaskAwaiter.ThrowForNonSuccess(Task task)
   at System.Runtime.CompilerServices.TaskAwaiter.HandleNonSuccessAndDebuggerNotification(Task task)
   at BananaLib.RestService.LoginQueue.<GetAuthToken>d__70.MoveNext()
[11/17/2016 3:24:47 AM]    at System.Runtime.CompilerServices.TaskAwaiter.ThrowForNonSuccess(Task task)
   at System.Runtime.CompilerServices.TaskAwaiter.HandleNonSuccessAndDebuggerNotification(Task task)
   at BananaLib.RestService.LoginQueue.<GetAuthResult>d__68.MoveNext()
--- End of stack trace from previous location where exception was thrown ---
   at System.Runtime.CompilerServices.TaskAwaiter.ThrowForNonSuccess(Task task)
   at System.Runtime.CompilerServices.TaskAwaiter.HandleNonSuccessAndDebuggerNotification(Task task)
   at BananaLib.RestService.LoginQueue.<GetAuthToken>d__70.MoveNext()
[11/17/2016 11:00:09 PM]    at System.Boolean.Parse(String value)
   at ezBot.Program.LoadConfigs()
[11/18/2016 4:02:34 PM] com.riotgames.platform.messaging.UnexpectedServiceException : find player exception with summoner id: 4611623
[11/22/2016 2:10:20 PM] 
[11/22/2016 2:10:20 PM]    at BananaLib.LoLClient.<ConnectAndLogin>d__177.MoveNext()
