[11/16/2016 7:14:27 AM] 
[11/16/2016 8:10:42 AM] 
[11/16/2016 9:00:28 AM]    at System.Number.StringToNumber(String str, NumberStyles options, NumberBuffer& number, NumberFormatInfo info, Boolean parseDecimal)
   at System.Number.ParseInt32(String s, NumberStyles style, NumberFormatInfo info)
   at System.Convert.ToInt32(String value)
   at ezBot.Program.LoadConfigs() in C:\Users\Hesa\Documents\HesaElobuddy\eZ_Source\ezBot\Program.cs:line 444
[11/16/2016 9:24:57 AM] 
[11/16/2016 9:28:49 AM] 
[11/16/2016 10:18:45 AM] 
[11/16/2016 10:25:50 AM] 
[11/16/2016 11:23:53 AM] 
[11/16/2016 11:49:48 AM] 
[11/16/2016 12:12:46 PM]    at System.Runtime.CompilerServices.TaskAwaiter.ThrowForNonSuccess(Task task)
   at System.Runtime.CompilerServices.TaskAwaiter.HandleNonSuccessAndDebuggerNotification(Task task)
   at System.Runtime.CompilerServices.ConfiguredTaskAwaitable`1.ConfiguredTaskAwaiter.GetResult()
   at BananaLib.RestService.LoginQueue.<GetAuthResult>d__68.MoveNext() in C:\Users\Hesa\Documents\HesaElobuddy\eZ_Source\BananaLib\RestService\LoginQueue.cs:line 133
--- End of stack trace from previous location where exception was thrown ---
   at System.Runtime.CompilerServices.TaskAwaiter.ThrowForNonSuccess(Task task)
   at System.Runtime.CompilerServices.TaskAwaiter.HandleNonSuccessAndDebuggerNotification(Task task)
   at System.Runtime.CompilerServices.ConfiguredTaskAwaitable`1.ConfiguredTaskAwaiter.GetResult()
   at BananaLib.RestService.LoginQueue.<GetAuthToken>d__70.MoveNext() in C:\Users\Hesa\Documents\HesaElobuddy\eZ_Source\BananaLib\RestService\LoginQueue.cs:line 159
[11/16/2016 12:13:36 PM]    at System.Runtime.CompilerServices.TaskAwaiter.ThrowForNonSuccess(Task task)
   at System.Runtime.CompilerServices.TaskAwaiter.HandleNonSuccessAndDebuggerNotification(Task task)
   at System.Runtime.CompilerServices.ConfiguredTaskAwaitable`1.ConfiguredTaskAwaiter.GetResult()
   at BananaLib.RestService.LoginQueue.<GetAuthResult>d__68.MoveNext() in C:\Users\Hesa\Documents\HesaElobuddy\eZ_Source\BananaLib\RestService\LoginQueue.cs:line 133
--- End of stack trace from previous location where exception was thrown ---
   at System.Runtime.CompilerServices.TaskAwaiter.ThrowForNonSuccess(Task task)
   at System.Runtime.CompilerServices.TaskAwaiter.HandleNonSuccessAndDebuggerNotification(Task task)
   at System.Runtime.CompilerServices.ConfiguredTaskAwaitable`1.ConfiguredTaskAwaiter.GetResult()
   at BananaLib.RestService.LoginQueue.<GetAuthToken>d__70.MoveNext() in C:\Users\Hesa\Documents\HesaElobuddy\eZ_Source\BananaLib\RestService\LoginQueue.cs:line 159
[11/16/2016 12:14:21 PM]    at System.Runtime.CompilerServices.TaskAwaiter.ThrowForNonSuccess(Task task)
   at System.Runtime.CompilerServices.TaskAwaiter.HandleNonSuccessAndDebuggerNotification(Task task)
   at System.Runtime.CompilerServices.ConfiguredTaskAwaitable`1.ConfiguredTaskAwaiter.GetResult()
   at BananaLib.RestService.LoginQueue.<GetAuthResult>d__68.MoveNext() in C:\Users\Hesa\Documents\HesaElobuddy\eZ_Source\BananaLib\RestService\LoginQueue.cs:line 133
--- End of stack trace from previous location where exception was thrown ---
   at System.Runtime.CompilerServices.TaskAwaiter.ThrowForNonSuccess(Task task)
   at System.Runtime.CompilerServices.TaskAwaiter.HandleNonSuccessAndDebuggerNotification(Task task)
   at System.Runtime.CompilerServices.ConfiguredTaskAwaitable`1.ConfiguredTaskAwaiter.GetResult()
   at BananaLib.RestService.LoginQueue.<GetAuthToken>d__70.MoveNext() in C:\Users\Hesa\Documents\HesaElobuddy\eZ_Source\BananaLib\RestService\LoginQueue.cs:line 159
[11/16/2016 12:15:33 PM]    at System.Runtime.CompilerServices.TaskAwaiter.ThrowForNonSuccess(Task task)
   at System.Runtime.CompilerServices.TaskAwaiter.HandleNonSuccessAndDebuggerNotification(Task task)
   at System.Runtime.CompilerServices.ConfiguredTaskAwaitable`1.ConfiguredTaskAwaiter.GetResult()
   at BananaLib.RestService.LoginQueue.<GetAuthResult>d__68.MoveNext() in C:\Users\Hesa\Documents\HesaElobuddy\eZ_Source\BananaLib\RestService\LoginQueue.cs:line 133
--- End of stack trace from previous location where exception was thrown ---
   at System.Runtime.CompilerServices.TaskAwaiter.ThrowForNonSuccess(Task task)
   at System.Runtime.CompilerServices.TaskAwaiter.HandleNonSuccessAndDebuggerNotification(Task task)
   at System.Runtime.CompilerServices.ConfiguredTaskAwaitable`1.ConfiguredTaskAwaiter.GetResult()
   at BananaLib.RestService.LoginQueue.<GetAuthToken>d__70.MoveNext() in C:\Users\Hesa\Documents\HesaElobuddy\eZ_Source\BananaLib\RestService\LoginQueue.cs:line 159
[11/16/2016 12:16:20 PM]    at System.Runtime.CompilerServices.TaskAwaiter.ThrowForNonSuccess(Task task)
   at System.Runtime.CompilerServices.TaskAwaiter.HandleNonSuccessAndDebuggerNotification(Task task)
   at System.Runtime.CompilerServices.ConfiguredTaskAwaitable`1.ConfiguredTaskAwaiter.GetResult()
   at BananaLib.RestService.LoginQueue.<GetAuthResult>d__68.MoveNext() in C:\Users\Hesa\Documents\HesaElobuddy\eZ_Source\BananaLib\RestService\LoginQueue.cs:line 133
--- End of stack trace from previous location where exception was thrown ---
   at System.Runtime.CompilerServices.TaskAwaiter.ThrowForNonSuccess(Task task)
   at System.Runtime.CompilerServices.TaskAwaiter.HandleNonSuccessAndDebuggerNotification(Task task)
   at System.Runtime.CompilerServices.ConfiguredTaskAwaitable`1.ConfiguredTaskAwaiter.GetResult()
   at BananaLib.RestService.LoginQueue.<GetAuthToken>d__70.MoveNext() in C:\Users\Hesa\Documents\HesaElobuddy\eZ_Source\BananaLib\RestService\LoginQueue.cs:line 159
[11/16/2016 12:17:16 PM]    at System.Runtime.CompilerServices.TaskAwaiter.ThrowForNonSuccess(Task task)
   at System.Runtime.CompilerServices.TaskAwaiter.HandleNonSuccessAndDebuggerNotification(Task task)
   at System.Runtime.CompilerServices.ConfiguredTaskAwaitable`1.ConfiguredTaskAwaiter.GetResult()
   at BananaLib.RestService.LoginQueue.<GetAuthResult>d__68.MoveNext() in C:\Users\Hesa\Documents\HesaElobuddy\eZ_Source\BananaLib\RestService\LoginQueue.cs:line 133
--- End of stack trace from previous location where exception was thrown ---
   at System.Runtime.CompilerServices.TaskAwaiter.ThrowForNonSuccess(Task task)
   at System.Runtime.CompilerServices.TaskAwaiter.HandleNonSuccessAndDebuggerNotification(Task task)
   at System.Runtime.CompilerServices.ConfiguredTaskAwaitable`1.ConfiguredTaskAwaiter.GetResult()
   at BananaLib.RestService.LoginQueue.<GetAuthToken>d__70.MoveNext() in C:\Users\Hesa\Documents\HesaElobuddy\eZ_Source\BananaLib\RestService\LoginQueue.cs:line 159
[11/16/2016 12:18:17 PM]    at System.Runtime.CompilerServices.TaskAwaiter.ThrowForNonSuccess(Task task)
   at System.Runtime.CompilerServices.TaskAwaiter.HandleNonSuccessAndDebuggerNotification(Task task)
   at System.Runtime.CompilerServices.ConfiguredTaskAwaitable`1.ConfiguredTaskAwaiter.GetResult()
   at BananaLib.RestService.LoginQueue.<GetAuthResult>d__68.MoveNext() in C:\Users\Hesa\Documents\HesaElobuddy\eZ_Source\BananaLib\RestService\LoginQueue.cs:line 133
--- End of stack trace from previous location where exception was thrown ---
   at System.Runtime.CompilerServices.TaskAwaiter.ThrowForNonSuccess(Task task)
   at System.Runtime.CompilerServices.TaskAwaiter.HandleNonSuccessAndDebuggerNotification(Task task)
   at System.Runtime.CompilerServices.ConfiguredTaskAwaitable`1.ConfiguredTaskAwaiter.GetResult()
   at BananaLib.RestService.LoginQueue.<GetAuthToken>d__70.MoveNext() in C:\Users\Hesa\Documents\HesaElobuddy\eZ_Source\BananaLib\RestService\LoginQueue.cs:line 159
[11/16/2016 12:19:46 PM]    at System.Runtime.CompilerServices.TaskAwaiter.ThrowForNonSuccess(Task task)
   at System.Runtime.CompilerServices.TaskAwaiter.HandleNonSuccessAndDebuggerNotification(Task task)
   at System.Runtime.CompilerServices.ConfiguredTaskAwaitable`1.ConfiguredTaskAwaiter.GetResult()
   at BananaLib.RestService.LoginQueue.<GetAuthResult>d__68.MoveNext() in C:\Users\Hesa\Documents\HesaElobuddy\eZ_Source\BananaLib\RestService\LoginQueue.cs:line 133
--- End of stack trace from previous location where exception was thrown ---
   at System.Runtime.CompilerServices.TaskAwaiter.ThrowForNonSuccess(Task task)
   at System.Runtime.CompilerServices.TaskAwaiter.HandleNonSuccessAndDebuggerNotification(Task task)
   at System.Runtime.CompilerServices.ConfiguredTaskAwaitable`1.ConfiguredTaskAwaiter.GetResult()
   at BananaLib.RestService.LoginQueue.<GetAuthToken>d__70.MoveNext() in C:\Users\Hesa\Documents\HesaElobuddy\eZ_Source\BananaLib\RestService\LoginQueue.cs:line 159
[11/16/2016 12:20:11 PM]    at System.Runtime.CompilerServices.TaskAwaiter.ThrowForNonSuccess(Task task)
   at System.Runtime.CompilerServices.TaskAwaiter.HandleNonSuccessAndDebuggerNotification(Task task)
   at System.Runtime.CompilerServices.ConfiguredTaskAwaitable`1.ConfiguredTaskAwaiter.GetResult()
   at BananaLib.RestService.LoginQueue.<GetAuthResult>d__68.MoveNext() in C:\Users\Hesa\Documents\HesaElobuddy\eZ_Source\BananaLib\RestService\LoginQueue.cs:line 133
--- End of stack trace from previous location where exception was thrown ---
   at System.Runtime.CompilerServices.TaskAwaiter.ThrowForNonSuccess(Task task)
   at System.Runtime.CompilerServices.TaskAwaiter.HandleNonSuccessAndDebuggerNotification(Task task)
   at System.Runtime.CompilerServices.ConfiguredTaskAwaitable`1.ConfiguredTaskAwaiter.GetResult()
   at BananaLib.RestService.LoginQueue.<GetAuthToken>d__70.MoveNext() in C:\Users\Hesa\Documents\HesaElobuddy\eZ_Source\BananaLib\RestService\LoginQueue.cs:line 159
[11/16/2016 12:20:47 PM]    at System.Runtime.CompilerServices.TaskAwaiter.ThrowForNonSuccess(Task task)
   at System.Runtime.CompilerServices.TaskAwaiter.HandleNonSuccessAndDebuggerNotification(Task task)
   at System.Runtime.CompilerServices.ConfiguredTaskAwaitable`1.ConfiguredTaskAwaiter.GetResult()
   at BananaLib.RestService.LoginQueue.<GetAuthResult>d__68.MoveNext() in C:\Users\Hesa\Documents\HesaElobuddy\eZ_Source\BananaLib\RestService\LoginQueue.cs:line 133
--- End of stack trace from previous location where exception was thrown ---
   at System.Runtime.CompilerServices.TaskAwaiter.ThrowForNonSuccess(Task task)
   at System.Runtime.CompilerServices.TaskAwaiter.HandleNonSuccessAndDebuggerNotification(Task task)
   at System.Runtime.CompilerServices.ConfiguredTaskAwaitable`1.ConfiguredTaskAwaiter.GetResult()
   at BananaLib.RestService.LoginQueue.<GetAuthToken>d__70.MoveNext() in C:\Users\Hesa\Documents\HesaElobuddy\eZ_Source\BananaLib\RestService\LoginQueue.cs:line 159
[11/16/2016 12:26:36 PM]    at System.Runtime.CompilerServices.TaskAwaiter.ThrowForNonSuccess(Task task)
   at System.Runtime.CompilerServices.TaskAwaiter.HandleNonSuccessAndDebuggerNotification(Task task)
   at System.Runtime.CompilerServices.ConfiguredTaskAwaitable`1.ConfiguredTaskAwaiter.GetResult()
   at BananaLib.RestService.LoginQueue.<GetAuthResult>d__68.MoveNext() in C:\Users\Hesa\Documents\HesaElobuddy\eZ_Source\BananaLib\RestService\LoginQueue.cs:line 133
--- End of stack trace from previous location where exception was thrown ---
   at System.Runtime.CompilerServices.TaskAwaiter.ThrowForNonSuccess(Task task)
   at System.Runtime.CompilerServices.TaskAwaiter.HandleNonSuccessAndDebuggerNotification(Task task)
   at System.Runtime.CompilerServices.ConfiguredTaskAwaitable`1.ConfiguredTaskAwaiter.GetResult()
   at BananaLib.RestService.LoginQueue.<GetAuthToken>d__70.MoveNext() in C:\Users\Hesa\Documents\HesaElobuddy\eZ_Source\BananaLib\RestService\LoginQueue.cs:line 159
[11/16/2016 12:27:05 PM]    at Newtonsoft.Json.JsonTextReader.ParseValue()
   at Newtonsoft.Json.JsonTextReader.Read()
   at Newtonsoft.Json.Serialization.JsonSerializerInternalReader.ReadForType(JsonReader reader, JsonContract contract, Boolean hasConverter)
   at Newtonsoft.Json.Serialization.JsonSerializerInternalReader.Deserialize(JsonReader reader, Type objectType, Boolean checkAdditionalContent)
   at Newtonsoft.Json.JsonSerializer.DeserializeInternal(JsonReader reader, Type objectType)
   at Newtonsoft.Json.JsonConvert.DeserializeObject(String value, Type type, JsonSerializerSettings settings)
   at Newtonsoft.Json.JsonConvert.DeserializeObject[T](String value, JsonSerializerSettings settings)
   at Newtonsoft.Json.JsonConvert.DeserializeObject[T](String value)
   at BananaLib.RestService.LoginQueue.<GetAuthResult>d__68.MoveNext() in C:\Users\Hesa\Documents\HesaElobuddy\eZ_Source\BananaLib\RestService\LoginQueue.cs:line 137
--- End of stack trace from previous location where exception was thrown ---
   at System.Runtime.CompilerServices.TaskAwaiter.ThrowForNonSuccess(Task task)
   at System.Runtime.CompilerServices.TaskAwaiter.HandleNonSuccessAndDebuggerNotification(Task task)
   at System.Runtime.CompilerServices.ConfiguredTaskAwaitable`1.ConfiguredTaskAwaiter.GetResult()
   at BananaLib.RestService.LoginQueue.<GetAuthToken>d__70.MoveNext() in C:\Users\Hesa\Documents\HesaElobuddy\eZ_Source\BananaLib\RestService\LoginQueue.cs:line 159
[11/16/2016 12:27:06 PM]    at Newtonsoft.Json.JsonTextReader.ParseValue()
   at Newtonsoft.Json.JsonTextReader.Read()
   at Newtonsoft.Json.Serialization.JsonSerializerInternalReader.ReadForType(JsonReader reader, JsonContract contract, Boolean hasConverter)
   at Newtonsoft.Json.Serialization.JsonSerializerInternalReader.Deserialize(JsonReader reader, Type objectType, Boolean checkAdditionalContent)
   at Newtonsoft.Json.JsonSerializer.DeserializeInternal(JsonReader reader, Type objectType)
   at Newtonsoft.Json.JsonConvert.DeserializeObject(String value, Type type, JsonSerializerSettings settings)
   at Newtonsoft.Json.JsonConvert.DeserializeObject[T](String value, JsonSerializerSettings settings)
   at Newtonsoft.Json.JsonConvert.DeserializeObject[T](String value)
   at BananaLib.RestService.LoginQueue.<GetAuthResult>d__68.MoveNext() in C:\Users\Hesa\Documents\HesaElobuddy\eZ_Source\BananaLib\RestService\LoginQueue.cs:line 137
--- End of stack trace from previous location where exception was thrown ---
   at System.Runtime.CompilerServices.TaskAwaiter.ThrowForNonSuccess(Task task)
   at System.Runtime.CompilerServices.TaskAwaiter.HandleNonSuccessAndDebuggerNotification(Task task)
   at System.Runtime.CompilerServices.ConfiguredTaskAwaitable`1.ConfiguredTaskAwaiter.GetResult()
   at BananaLib.RestService.LoginQueue.<GetAuthToken>d__70.MoveNext() in C:\Users\Hesa\Documents\HesaElobuddy\eZ_Source\BananaLib\RestService\LoginQueue.cs:line 159
[11/16/2016 12:27:07 PM]    at Newtonsoft.Json.JsonTextReader.ParseValue()
   at Newtonsoft.Json.JsonTextReader.Read()
   at Newtonsoft.Json.Serialization.JsonSerializerInternalReader.ReadForType(JsonReader reader, JsonContract contract, Boolean hasConverter)
   at Newtonsoft.Json.Serialization.JsonSerializerInternalReader.Deserialize(JsonReader reader, Type objectType, Boolean checkAdditionalContent)
   at Newtonsoft.Json.JsonSerializer.DeserializeInternal(JsonReader reader, Type objectType)
   at Newtonsoft.Json.JsonConvert.DeserializeObject(String value, Type type, JsonSerializerSettings settings)
   at Newtonsoft.Json.JsonConvert.DeserializeObject[T](String value, JsonSerializerSettings settings)
   at Newtonsoft.Json.JsonConvert.DeserializeObject[T](String value)
   at BananaLib.RestService.LoginQueue.<GetAuthResult>d__68.MoveNext() in C:\Users\Hesa\Documents\HesaElobuddy\eZ_Source\BananaLib\RestService\LoginQueue.cs:line 137
--- End of stack trace from previous location where exception was thrown ---
   at System.Runtime.CompilerServices.TaskAwaiter.ThrowForNonSuccess(Task task)
   at System.Runtime.CompilerServices.TaskAwaiter.HandleNonSuccessAndDebuggerNotification(Task task)
   at System.Runtime.CompilerServices.ConfiguredTaskAwaitable`1.ConfiguredTaskAwaiter.GetResult()
   at BananaLib.RestService.LoginQueue.<GetAuthToken>d__70.MoveNext() in C:\Users\Hesa\Documents\HesaElobuddy\eZ_Source\BananaLib\RestService\LoginQueue.cs:line 159
[11/16/2016 12:27:09 PM]    at Newtonsoft.Json.JsonTextReader.ParseValue()
   at Newtonsoft.Json.JsonTextReader.Read()
   at Newtonsoft.Json.Serialization.JsonSerializerInternalReader.ReadForType(JsonReader reader, JsonContract contract, Boolean hasConverter)
   at Newtonsoft.Json.Serialization.JsonSerializerInternalReader.Deserialize(JsonReader reader, Type objectType, Boolean checkAdditionalContent)
   at Newtonsoft.Json.JsonSerializer.DeserializeInternal(JsonReader reader, Type objectType)
   at Newtonsoft.Json.JsonConvert.DeserializeObject(String value, Type type, JsonSerializerSettings settings)
   at Newtonsoft.Json.JsonConvert.DeserializeObject[T](String value, JsonSerializerSettings settings)
   at Newtonsoft.Json.JsonConvert.DeserializeObject[T](String value)
   at BananaLib.RestService.LoginQueue.<GetAuthResult>d__68.MoveNext() in C:\Users\Hesa\Documents\HesaElobuddy\eZ_Source\BananaLib\RestService\LoginQueue.cs:line 137
--- End of stack trace from previous location where exception was thrown ---
   at System.Runtime.CompilerServices.TaskAwaiter.ThrowForNonSuccess(Task task)
   at System.Runtime.CompilerServices.TaskAwaiter.HandleNonSuccessAndDebuggerNotification(Task task)
   at System.Runtime.CompilerServices.ConfiguredTaskAwaitable`1.ConfiguredTaskAwaiter.GetResult()
   at BananaLib.RestService.LoginQueue.<GetAuthToken>d__70.MoveNext() in C:\Users\Hesa\Documents\HesaElobuddy\eZ_Source\BananaLib\RestService\LoginQueue.cs:line 159
[11/16/2016 12:27:10 PM]    at Newtonsoft.Json.JsonTextReader.ParseValue()
   at Newtonsoft.Json.JsonTextReader.Read()
   at Newtonsoft.Json.Serialization.JsonSerializerInternalReader.ReadForType(JsonReader reader, JsonContract contract, Boolean hasConverter)
   at Newtonsoft.Json.Serialization.JsonSerializerInternalReader.Deserialize(JsonReader reader, Type objectType, Boolean checkAdditionalContent)
   at Newtonsoft.Json.JsonSerializer.DeserializeInternal(JsonReader reader, Type objectType)
   at Newtonsoft.Json.JsonConvert.DeserializeObject(String value, Type type, JsonSerializerSettings settings)
   at Newtonsoft.Json.JsonConvert.DeserializeObject[T](String value, JsonSerializerSettings settings)
   at Newtonsoft.Json.JsonConvert.DeserializeObject[T](String value)
   at BananaLib.RestService.LoginQueue.<GetAuthResult>d__68.MoveNext() in C:\Users\Hesa\Documents\HesaElobuddy\eZ_Source\BananaLib\RestService\LoginQueue.cs:line 137
--- End of stack trace from previous location where exception was thrown ---
   at System.Runtime.CompilerServices.TaskAwaiter.ThrowForNonSuccess(Task task)
   at System.Runtime.CompilerServices.TaskAwaiter.HandleNonSuccessAndDebuggerNotification(Task task)
   at System.Runtime.CompilerServices.ConfiguredTaskAwaitable`1.ConfiguredTaskAwaiter.GetResult()
   at BananaLib.RestService.LoginQueue.<GetAuthToken>d__70.MoveNext() in C:\Users\Hesa\Documents\HesaElobuddy\eZ_Source\BananaLib\RestService\LoginQueue.cs:line 159
[11/16/2016 12:27:11 PM]    at Newtonsoft.Json.JsonTextReader.ParseValue()
   at Newtonsoft.Json.JsonTextReader.Read()
   at Newtonsoft.Json.Serialization.JsonSerializerInternalReader.ReadForType(JsonReader reader, JsonContract contract, Boolean hasConverter)
   at Newtonsoft.Json.Serialization.JsonSerializerInternalReader.Deserialize(JsonReader reader, Type objectType, Boolean checkAdditionalContent)
   at Newtonsoft.Json.JsonSerializer.DeserializeInternal(JsonReader reader, Type objectType)
   at Newtonsoft.Json.JsonConvert.DeserializeObject(String value, Type type, JsonSerializerSettings settings)
   at Newtonsoft.Json.JsonConvert.DeserializeObject[T](String value, JsonSerializerSettings settings)
   at Newtonsoft.Json.JsonConvert.DeserializeObject[T](String value)
   at BananaLib.RestService.LoginQueue.<GetAuthResult>d__68.MoveNext() in C:\Users\Hesa\Documents\HesaElobuddy\eZ_Source\BananaLib\RestService\LoginQueue.cs:line 137
--- End of stack trace from previous location where exception was thrown ---
   at System.Runtime.CompilerServices.TaskAwaiter.ThrowForNonSuccess(Task task)
   at System.Runtime.CompilerServices.TaskAwaiter.HandleNonSuccessAndDebuggerNotification(Task task)
   at System.Runtime.CompilerServices.ConfiguredTaskAwaitable`1.ConfiguredTaskAwaiter.GetResult()
   at BananaLib.RestService.LoginQueue.<GetAuthToken>d__70.MoveNext() in C:\Users\Hesa\Documents\HesaElobuddy\eZ_Source\BananaLib\RestService\LoginQueue.cs:line 159
[11/16/2016 12:27:13 PM]    at Newtonsoft.Json.JsonTextReader.ParseValue()
   at Newtonsoft.Json.JsonTextReader.Read()
   at Newtonsoft.Json.Serialization.JsonSerializerInternalReader.ReadForType(JsonReader reader, JsonContract contract, Boolean hasConverter)
   at Newtonsoft.Json.Serialization.JsonSerializerInternalReader.Deserialize(JsonReader reader, Type objectType, Boolean checkAdditionalContent)
   at Newtonsoft.Json.JsonSerializer.DeserializeInternal(JsonReader reader, Type objectType)
   at Newtonsoft.Json.JsonConvert.DeserializeObject(String value, Type type, JsonSerializerSettings settings)
   at Newtonsoft.Json.JsonConvert.DeserializeObject[T](String value, JsonSerializerSettings settings)
   at Newtonsoft.Json.JsonConvert.DeserializeObject[T](String value)
   at BananaLib.RestService.LoginQueue.<GetAuthResult>d__68.MoveNext() in C:\Users\Hesa\Documents\HesaElobuddy\eZ_Source\BananaLib\RestService\LoginQueue.cs:line 137
--- End of stack trace from previous location where exception was thrown ---
   at System.Runtime.CompilerServices.TaskAwaiter.ThrowForNonSuccess(Task task)
   at System.Runtime.CompilerServices.TaskAwaiter.HandleNonSuccessAndDebuggerNotification(Task task)
   at System.Runtime.CompilerServices.ConfiguredTaskAwaitable`1.ConfiguredTaskAwaiter.GetResult()
   at BananaLib.RestService.LoginQueue.<GetAuthToken>d__70.MoveNext() in C:\Users\Hesa\Documents\HesaElobuddy\eZ_Source\BananaLib\RestService\LoginQueue.cs:line 159
[11/16/2016 12:27:14 PM]    at Newtonsoft.Json.JsonTextReader.ParseValue()
   at Newtonsoft.Json.JsonTextReader.Read()
   at Newtonsoft.Json.Serialization.JsonSerializerInternalReader.ReadForType(JsonReader reader, JsonContract contract, Boolean hasConverter)
   at Newtonsoft.Json.Serialization.JsonSerializerInternalReader.Deserialize(JsonReader reader, Type objectType, Boolean checkAdditionalContent)
   at Newtonsoft.Json.JsonSerializer.DeserializeInternal(JsonReader reader, Type objectType)
   at Newtonsoft.Json.JsonConvert.DeserializeObject(String value, Type type, JsonSerializerSettings settings)
   at Newtonsoft.Json.JsonConvert.DeserializeObject[T](String value, JsonSerializerSettings settings)
   at Newtonsoft.Json.JsonConvert.DeserializeObject[T](String value)
   at BananaLib.RestService.LoginQueue.<GetAuthResult>d__68.MoveNext() in C:\Users\Hesa\Documents\HesaElobuddy\eZ_Source\BananaLib\RestService\LoginQueue.cs:line 137
--- End of stack trace from previous location where exception was thrown ---
   at System.Runtime.CompilerServices.TaskAwaiter.ThrowForNonSuccess(Task task)
   at System.Runtime.CompilerServices.TaskAwaiter.HandleNonSuccessAndDebuggerNotification(Task task)
   at System.Runtime.CompilerServices.ConfiguredTaskAwaitable`1.ConfiguredTaskAwaiter.GetResult()
   at BananaLib.RestService.LoginQueue.<GetAuthToken>d__70.MoveNext() in C:\Users\Hesa\Documents\HesaElobuddy\eZ_Source\BananaLib\RestService\LoginQueue.cs:line 159
[11/16/2016 12:27:16 PM]    at Newtonsoft.Json.JsonTextReader.ParseValue()
   at Newtonsoft.Json.JsonTextReader.Read()
   at Newtonsoft.Json.Serialization.JsonSerializerInternalReader.ReadForType(JsonReader reader, JsonContract contract, Boolean hasConverter)
   at Newtonsoft.Json.Serialization.JsonSerializerInternalReader.Deserialize(JsonReader reader, Type objectType, Boolean checkAdditionalContent)
   at Newtonsoft.Json.JsonSerializer.DeserializeInternal(JsonReader reader, Type objectType)
   at Newtonsoft.Json.JsonConvert.DeserializeObject(String value, Type type, JsonSerializerSettings settings)
   at Newtonsoft.Json.JsonConvert.DeserializeObject[T](String value, JsonSerializerSettings settings)
   at Newtonsoft.Json.JsonConvert.DeserializeObject[T](String value)
   at BananaLib.RestService.LoginQueue.<GetAuthResult>d__68.MoveNext() in C:\Users\Hesa\Documents\HesaElobuddy\eZ_Source\BananaLib\RestService\LoginQueue.cs:line 137
--- End of stack trace from previous location where exception was thrown ---
   at System.Runtime.CompilerServices.TaskAwaiter.ThrowForNonSuccess(Task task)
   at System.Runtime.CompilerServices.TaskAwaiter.HandleNonSuccessAndDebuggerNotification(Task task)
   at System.Runtime.CompilerServices.ConfiguredTaskAwaitable`1.ConfiguredTaskAwaiter.GetResult()
   at BananaLib.RestService.LoginQueue.<GetAuthToken>d__70.MoveNext() in C:\Users\Hesa\Documents\HesaElobuddy\eZ_Source\BananaLib\RestService\LoginQueue.cs:line 159
[11/16/2016 12:27:17 PM]    at Newtonsoft.Json.JsonTextReader.ParseValue()
   at Newtonsoft.Json.JsonTextReader.Read()
   at Newtonsoft.Json.Serialization.JsonSerializerInternalReader.ReadForType(JsonReader reader, JsonContract contract, Boolean hasConverter)
   at Newtonsoft.Json.Serialization.JsonSerializerInternalReader.Deserialize(JsonReader reader, Type objectType, Boolean checkAdditionalContent)
   at Newtonsoft.Json.JsonSerializer.DeserializeInternal(JsonReader reader, Type objectType)
   at Newtonsoft.Json.JsonConvert.DeserializeObject(String value, Type type, JsonSerializerSettings settings)
   at Newtonsoft.Json.JsonConvert.DeserializeObject[T](String value, JsonSerializerSettings settings)
   at Newtonsoft.Json.JsonConvert.DeserializeObject[T](String value)
   at BananaLib.RestService.LoginQueue.<GetAuthResult>d__68.MoveNext() in C:\Users\Hesa\Documents\HesaElobuddy\eZ_Source\BananaLib\RestService\LoginQueue.cs:line 137
--- End of stack trace from previous location where exception was thrown ---
   at System.Runtime.CompilerServices.TaskAwaiter.ThrowForNonSuccess(Task task)
   at System.Runtime.CompilerServices.TaskAwaiter.HandleNonSuccessAndDebuggerNotification(Task task)
   at System.Runtime.CompilerServices.ConfiguredTaskAwaitable`1.ConfiguredTaskAwaiter.GetResult()
   at BananaLib.RestService.LoginQueue.<GetAuthToken>d__70.MoveNext() in C:\Users\Hesa\Documents\HesaElobuddy\eZ_Source\BananaLib\RestService\LoginQueue.cs:line 159
[11/16/2016 12:27:18 PM]    at Newtonsoft.Json.JsonTextReader.ParseValue()
   at Newtonsoft.Json.JsonTextReader.Read()
   at Newtonsoft.Json.Serialization.JsonSerializerInternalReader.ReadForType(JsonReader reader, JsonContract contract, Boolean hasConverter)
   at Newtonsoft.Json.Serialization.JsonSerializerInternalReader.Deserialize(JsonReader reader, Type objectType, Boolean checkAdditionalContent)
   at Newtonsoft.Json.JsonSerializer.DeserializeInternal(JsonReader reader, Type objectType)
   at Newtonsoft.Json.JsonConvert.DeserializeObject(String value, Type type, JsonSerializerSettings settings)
   at Newtonsoft.Json.JsonConvert.DeserializeObject[T](String value, JsonSerializerSettings settings)
   at Newtonsoft.Json.JsonConvert.DeserializeObject[T](String value)
   at BananaLib.RestService.LoginQueue.<GetAuthResult>d__68.MoveNext() in C:\Users\Hesa\Documents\HesaElobuddy\eZ_Source\BananaLib\RestService\LoginQueue.cs:line 137
--- End of stack trace from previous location where exception was thrown ---
   at System.Runtime.CompilerServices.TaskAwaiter.ThrowForNonSuccess(Task task)
   at System.Runtime.CompilerServices.TaskAwaiter.HandleNonSuccessAndDebuggerNotification(Task task)
   at System.Runtime.CompilerServices.ConfiguredTaskAwaitable`1.ConfiguredTaskAwaiter.GetResult()
   at BananaLib.RestService.LoginQueue.<GetAuthToken>d__70.MoveNext() in C:\Users\Hesa\Documents\HesaElobuddy\eZ_Source\BananaLib\RestService\LoginQueue.cs:line 159
[11/16/2016 12:27:20 PM]    at Newtonsoft.Json.JsonTextReader.ParseValue()
   at Newtonsoft.Json.JsonTextReader.Read()
   at Newtonsoft.Json.Serialization.JsonSerializerInternalReader.ReadForType(JsonReader reader, JsonContract contract, Boolean hasConverter)
   at Newtonsoft.Json.Serialization.JsonSerializerInternalReader.Deserialize(JsonReader reader, Type objectType, Boolean checkAdditionalContent)
   at Newtonsoft.Json.JsonSerializer.DeserializeInternal(JsonReader reader, Type objectType)
   at Newtonsoft.Json.JsonConvert.DeserializeObject(String value, Type type, JsonSerializerSettings settings)
   at Newtonsoft.Json.JsonConvert.DeserializeObject[T](String value, JsonSerializerSettings settings)
   at Newtonsoft.Json.JsonConvert.DeserializeObject[T](String value)
   at BananaLib.RestService.LoginQueue.<GetAuthResult>d__68.MoveNext() in C:\Users\Hesa\Documents\HesaElobuddy\eZ_Source\BananaLib\RestService\LoginQueue.cs:line 137
--- End of stack trace from previous location where exception was thrown ---
   at System.Runtime.CompilerServices.TaskAwaiter.ThrowForNonSuccess(Task task)
   at System.Runtime.CompilerServices.TaskAwaiter.HandleNonSuccessAndDebuggerNotification(Task task)
   at System.Runtime.CompilerServices.ConfiguredTaskAwaitable`1.ConfiguredTaskAwaiter.GetResult()
   at BananaLib.RestService.LoginQueue.<GetAuthToken>d__70.MoveNext() in C:\Users\Hesa\Documents\HesaElobuddy\eZ_Source\BananaLib\RestService\LoginQueue.cs:line 159
[11/16/2016 12:27:21 PM]    at Newtonsoft.Json.JsonTextReader.ParseValue()
   at Newtonsoft.Json.JsonTextReader.Read()
   at Newtonsoft.Json.Serialization.JsonSerializerInternalReader.ReadForType(JsonReader reader, JsonContract contract, Boolean hasConverter)
   at Newtonsoft.Json.Serialization.JsonSerializerInternalReader.Deserialize(JsonReader reader, Type objectType, Boolean checkAdditionalContent)
   at Newtonsoft.Json.JsonSerializer.DeserializeInternal(JsonReader reader, Type objectType)
   at Newtonsoft.Json.JsonConvert.DeserializeObject(String value, Type type, JsonSerializerSettings settings)
   at Newtonsoft.Json.JsonConvert.DeserializeObject[T](String value, JsonSerializerSettings settings)
   at Newtonsoft.Json.JsonConvert.DeserializeObject[T](String value)
   at BananaLib.RestService.LoginQueue.<GetAuthResult>d__68.MoveNext() in C:\Users\Hesa\Documents\HesaElobuddy\eZ_Source\BananaLib\RestService\LoginQueue.cs:line 137
--- End of stack trace from previous location where exception was thrown ---
   at System.Runtime.CompilerServices.TaskAwaiter.ThrowForNonSuccess(Task task)
   at System.Runtime.CompilerServices.TaskAwaiter.HandleNonSuccessAndDebuggerNotification(Task task)
   at System.Runtime.CompilerServices.ConfiguredTaskAwaitable`1.ConfiguredTaskAwaiter.GetResult()
   at BananaLib.RestService.LoginQueue.<GetAuthToken>d__70.MoveNext() in C:\Users\Hesa\Documents\HesaElobuddy\eZ_Source\BananaLib\RestService\LoginQueue.cs:line 159
[11/16/2016 12:27:22 PM]    at Newtonsoft.Json.JsonTextReader.ParseValue()
   at Newtonsoft.Json.JsonTextReader.Read()
   at Newtonsoft.Json.Serialization.JsonSerializerInternalReader.ReadForType(JsonReader reader, JsonContract contract, Boolean hasConverter)
   at Newtonsoft.Json.Serialization.JsonSerializerInternalReader.Deserialize(JsonReader reader, Type objectType, Boolean checkAdditionalContent)
   at Newtonsoft.Json.JsonSerializer.DeserializeInternal(JsonReader reader, Type objectType)
   at Newtonsoft.Json.JsonConvert.DeserializeObject(String value, Type type, JsonSerializerSettings settings)
   at Newtonsoft.Json.JsonConvert.DeserializeObject[T](String value, JsonSerializerSettings settings)
   at Newtonsoft.Json.JsonConvert.DeserializeObject[T](String value)
   at BananaLib.RestService.LoginQueue.<GetAuthResult>d__68.MoveNext() in C:\Users\Hesa\Documents\HesaElobuddy\eZ_Source\BananaLib\RestService\LoginQueue.cs:line 137
--- End of stack trace from previous location where exception was thrown ---
   at System.Runtime.CompilerServices.TaskAwaiter.ThrowForNonSuccess(Task task)
   at System.Runtime.CompilerServices.TaskAwaiter.HandleNonSuccessAndDebuggerNotification(Task task)
   at System.Runtime.CompilerServices.ConfiguredTaskAwaitable`1.ConfiguredTaskAwaiter.GetResult()
   at BananaLib.RestService.LoginQueue.<GetAuthToken>d__70.MoveNext() in C:\Users\Hesa\Documents\HesaElobuddy\eZ_Source\BananaLib\RestService\LoginQueue.cs:line 159
[11/16/2016 12:27:24 PM]    at Newtonsoft.Json.JsonTextReader.ParseValue()
   at Newtonsoft.Json.JsonTextReader.Read()
   at Newtonsoft.Json.Serialization.JsonSerializerInternalReader.ReadForType(JsonReader reader, JsonContract contract, Boolean hasConverter)
   at Newtonsoft.Json.Serialization.JsonSerializerInternalReader.Deserialize(JsonReader reader, Type objectType, Boolean checkAdditionalContent)
   at Newtonsoft.Json.JsonSerializer.DeserializeInternal(JsonReader reader, Type objectType)
   at Newtonsoft.Json.JsonConvert.DeserializeObject(String value, Type type, JsonSerializerSettings settings)
   at Newtonsoft.Json.JsonConvert.DeserializeObject[T](String value, JsonSerializerSettings settings)
   at Newtonsoft.Json.JsonConvert.DeserializeObject[T](String value)
   at BananaLib.RestService.LoginQueue.<GetAuthResult>d__68.MoveNext() in C:\Users\Hesa\Documents\HesaElobuddy\eZ_Source\BananaLib\RestService\LoginQueue.cs:line 137
--- End of stack trace from previous location where exception was thrown ---
   at System.Runtime.CompilerServices.TaskAwaiter.ThrowForNonSuccess(Task task)
   at System.Runtime.CompilerServices.TaskAwaiter.HandleNonSuccessAndDebuggerNotification(Task task)
   at System.Runtime.CompilerServices.ConfiguredTaskAwaitable`1.ConfiguredTaskAwaiter.GetResult()
   at BananaLib.RestService.LoginQueue.<GetAuthToken>d__70.MoveNext() in C:\Users\Hesa\Documents\HesaElobuddy\eZ_Source\BananaLib\RestService\LoginQueue.cs:line 159
[11/16/2016 12:27:25 PM]    at Newtonsoft.Json.JsonTextReader.ParseValue()
   at Newtonsoft.Json.JsonTextReader.Read()
   at Newtonsoft.Json.Serialization.JsonSerializerInternalReader.ReadForType(JsonReader reader, JsonContract contract, Boolean hasConverter)
   at Newtonsoft.Json.Serialization.JsonSerializerInternalReader.Deserialize(JsonReader reader, Type objectType, Boolean checkAdditionalContent)
   at Newtonsoft.Json.JsonSerializer.DeserializeInternal(JsonReader reader, Type objectType)
   at Newtonsoft.Json.JsonConvert.DeserializeObject(String value, Type type, JsonSerializerSettings settings)
   at Newtonsoft.Json.JsonConvert.DeserializeObject[T](String value, JsonSerializerSettings settings)
   at Newtonsoft.Json.JsonConvert.DeserializeObject[T](String value)
   at BananaLib.RestService.LoginQueue.<GetAuthResult>d__68.MoveNext() in C:\Users\Hesa\Documents\HesaElobuddy\eZ_Source\BananaLib\RestService\LoginQueue.cs:line 137
--- End of stack trace from previous location where exception was thrown ---
   at System.Runtime.CompilerServices.TaskAwaiter.ThrowForNonSuccess(Task task)
   at System.Runtime.CompilerServices.TaskAwaiter.HandleNonSuccessAndDebuggerNotification(Task task)
   at System.Runtime.CompilerServices.ConfiguredTaskAwaitable`1.ConfiguredTaskAwaiter.GetResult()
   at BananaLib.RestService.LoginQueue.<GetAuthToken>d__70.MoveNext() in C:\Users\Hesa\Documents\HesaElobuddy\eZ_Source\BananaLib\RestService\LoginQueue.cs:line 159
[11/16/2016 12:27:27 PM]    at Newtonsoft.Json.JsonTextReader.ParseValue()
   at Newtonsoft.Json.JsonTextReader.Read()
   at Newtonsoft.Json.Serialization.JsonSerializerInternalReader.ReadForType(JsonReader reader, JsonContract contract, Boolean hasConverter)
   at Newtonsoft.Json.Serialization.JsonSerializerInternalReader.Deserialize(JsonReader reader, Type objectType, Boolean checkAdditionalContent)
   at Newtonsoft.Json.JsonSerializer.DeserializeInternal(JsonReader reader, Type objectType)
   at Newtonsoft.Json.JsonConvert.DeserializeObject(String value, Type type, JsonSerializerSettings settings)
   at Newtonsoft.Json.JsonConvert.DeserializeObject[T](String value, JsonSerializerSettings settings)
   at Newtonsoft.Json.JsonConvert.DeserializeObject[T](String value)
   at BananaLib.RestService.LoginQueue.<GetAuthResult>d__68.MoveNext() in C:\Users\Hesa\Documents\HesaElobuddy\eZ_Source\BananaLib\RestService\LoginQueue.cs:line 137
--- End of stack trace from previous location where exception was thrown ---
   at System.Runtime.CompilerServices.TaskAwaiter.ThrowForNonSuccess(Task task)
   at System.Runtime.CompilerServices.TaskAwaiter.HandleNonSuccessAndDebuggerNotification(Task task)
   at System.Runtime.CompilerServices.ConfiguredTaskAwaitable`1.ConfiguredTaskAwaiter.GetResult()
   at BananaLib.RestService.LoginQueue.<GetAuthToken>d__70.MoveNext() in C:\Users\Hesa\Documents\HesaElobuddy\eZ_Source\BananaLib\RestService\LoginQueue.cs:line 159
[11/16/2016 12:27:28 PM]    at Newtonsoft.Json.JsonTextReader.ParseValue()
   at Newtonsoft.Json.JsonTextReader.Read()
   at Newtonsoft.Json.Serialization.JsonSerializerInternalReader.ReadForType(JsonReader reader, JsonContract contract, Boolean hasConverter)
   at Newtonsoft.Json.Serialization.JsonSerializerInternalReader.Deserialize(JsonReader reader, Type objectType, Boolean checkAdditionalContent)
   at Newtonsoft.Json.JsonSerializer.DeserializeInternal(JsonReader reader, Type objectType)
   at Newtonsoft.Json.JsonConvert.DeserializeObject(String value, Type type, JsonSerializerSettings settings)
   at Newtonsoft.Json.JsonConvert.DeserializeObject[T](String value, JsonSerializerSettings settings)
   at Newtonsoft.Json.JsonConvert.DeserializeObject[T](String value)
   at BananaLib.RestService.LoginQueue.<GetAuthResult>d__68.MoveNext() in C:\Users\Hesa\Documents\HesaElobuddy\eZ_Source\BananaLib\RestService\LoginQueue.cs:line 137
--- End of stack trace from previous location where exception was thrown ---
   at System.Runtime.CompilerServices.TaskAwaiter.ThrowForNonSuccess(Task task)
   at System.Runtime.CompilerServices.TaskAwaiter.HandleNonSuccessAndDebuggerNotification(Task task)
   at System.Runtime.CompilerServices.ConfiguredTaskAwaitable`1.ConfiguredTaskAwaiter.GetResult()
   at BananaLib.RestService.LoginQueue.<GetAuthToken>d__70.MoveNext() in C:\Users\Hesa\Documents\HesaElobuddy\eZ_Source\BananaLib\RestService\LoginQueue.cs:line 159
[11/16/2016 12:27:29 PM]    at Newtonsoft.Json.JsonTextReader.ParseValue()
   at Newtonsoft.Json.JsonTextReader.Read()
   at Newtonsoft.Json.Serialization.JsonSerializerInternalReader.ReadForType(JsonReader reader, JsonContract contract, Boolean hasConverter)
   at Newtonsoft.Json.Serialization.JsonSerializerInternalReader.Deserialize(JsonReader reader, Type objectType, Boolean checkAdditionalContent)
   at Newtonsoft.Json.JsonSerializer.DeserializeInternal(JsonReader reader, Type objectType)
   at Newtonsoft.Json.JsonConvert.DeserializeObject(String value, Type type, JsonSerializerSettings settings)
   at Newtonsoft.Json.JsonConvert.DeserializeObject[T](String value, JsonSerializerSettings settings)
   at Newtonsoft.Json.JsonConvert.DeserializeObject[T](String value)
   at BananaLib.RestService.LoginQueue.<GetAuthResult>d__68.MoveNext() in C:\Users\Hesa\Documents\HesaElobuddy\eZ_Source\BananaLib\RestService\LoginQueue.cs:line 137
--- End of stack trace from previous location where exception was thrown ---
   at System.Runtime.CompilerServices.TaskAwaiter.ThrowForNonSuccess(Task task)
   at System.Runtime.CompilerServices.TaskAwaiter.HandleNonSuccessAndDebuggerNotification(Task task)
   at System.Runtime.CompilerServices.ConfiguredTaskAwaitable`1.ConfiguredTaskAwaiter.GetResult()
   at BananaLib.RestService.LoginQueue.<GetAuthToken>d__70.MoveNext() in C:\Users\Hesa\Documents\HesaElobuddy\eZ_Source\BananaLib\RestService\LoginQueue.cs:line 159
[11/16/2016 12:27:31 PM]    at Newtonsoft.Json.JsonTextReader.ParseValue()
   at Newtonsoft.Json.JsonTextReader.Read()
   at Newtonsoft.Json.Serialization.JsonSerializerInternalReader.ReadForType(JsonReader reader, JsonContract contract, Boolean hasConverter)
   at Newtonsoft.Json.Serialization.JsonSerializerInternalReader.Deserialize(JsonReader reader, Type objectType, Boolean checkAdditionalContent)
   at Newtonsoft.Json.JsonSerializer.DeserializeInternal(JsonReader reader, Type objectType)
   at Newtonsoft.Json.JsonConvert.DeserializeObject(String value, Type type, JsonSerializerSettings settings)
   at Newtonsoft.Json.JsonConvert.DeserializeObject[T](String value, JsonSerializerSettings settings)
   at Newtonsoft.Json.JsonConvert.DeserializeObject[T](String value)
   at BananaLib.RestService.LoginQueue.<GetAuthResult>d__68.MoveNext() in C:\Users\Hesa\Documents\HesaElobuddy\eZ_Source\BananaLib\RestService\LoginQueue.cs:line 137
--- End of stack trace from previous location where exception was thrown ---
   at System.Runtime.CompilerServices.TaskAwaiter.ThrowForNonSuccess(Task task)
   at System.Runtime.CompilerServices.TaskAwaiter.HandleNonSuccessAndDebuggerNotification(Task task)
   at System.Runtime.CompilerServices.ConfiguredTaskAwaitable`1.ConfiguredTaskAwaiter.GetResult()
   at BananaLib.RestService.LoginQueue.<GetAuthToken>d__70.MoveNext() in C:\Users\Hesa\Documents\HesaElobuddy\eZ_Source\BananaLib\RestService\LoginQueue.cs:line 159
[11/16/2016 12:27:32 PM]    at Newtonsoft.Json.JsonTextReader.ParseValue()
   at Newtonsoft.Json.JsonTextReader.Read()
   at Newtonsoft.Json.Serialization.JsonSerializerInternalReader.ReadForType(JsonReader reader, JsonContract contract, Boolean hasConverter)
   at Newtonsoft.Json.Serialization.JsonSerializerInternalReader.Deserialize(JsonReader reader, Type objectType, Boolean checkAdditionalContent)
   at Newtonsoft.Json.JsonSerializer.DeserializeInternal(JsonReader reader, Type objectType)
   at Newtonsoft.Json.JsonConvert.DeserializeObject(String value, Type type, JsonSerializerSettings settings)
   at Newtonsoft.Json.JsonConvert.DeserializeObject[T](String value, JsonSerializerSettings settings)
   at Newtonsoft.Json.JsonConvert.DeserializeObject[T](String value)
   at BananaLib.RestService.LoginQueue.<GetAuthResult>d__68.MoveNext() in C:\Users\Hesa\Documents\HesaElobuddy\eZ_Source\BananaLib\RestService\LoginQueue.cs:line 137
--- End of stack trace from previous location where exception was thrown ---
   at System.Runtime.CompilerServices.TaskAwaiter.ThrowForNonSuccess(Task task)
   at System.Runtime.CompilerServices.TaskAwaiter.HandleNonSuccessAndDebuggerNotification(Task task)
   at System.Runtime.CompilerServices.ConfiguredTaskAwaitable`1.ConfiguredTaskAwaiter.GetResult()
   at BananaLib.RestService.LoginQueue.<GetAuthToken>d__70.MoveNext() in C:\Users\Hesa\Documents\HesaElobuddy\eZ_Source\BananaLib\RestService\LoginQueue.cs:line 159
[11/16/2016 12:27:33 PM]    at Newtonsoft.Json.JsonTextReader.ParseValue()
   at Newtonsoft.Json.JsonTextReader.Read()
   at Newtonsoft.Json.Serialization.JsonSerializerInternalReader.ReadForType(JsonReader reader, JsonContract contract, Boolean hasConverter)
   at Newtonsoft.Json.Serialization.JsonSerializerInternalReader.Deserialize(JsonReader reader, Type objectType, Boolean checkAdditionalContent)
   at Newtonsoft.Json.JsonSerializer.DeserializeInternal(JsonReader reader, Type objectType)
   at Newtonsoft.Json.JsonConvert.DeserializeObject(String value, Type type, JsonSerializerSettings settings)
   at Newtonsoft.Json.JsonConvert.DeserializeObject[T](String value, JsonSerializerSettings settings)
   at Newtonsoft.Json.JsonConvert.DeserializeObject[T](String value)
   at BananaLib.RestService.LoginQueue.<GetAuthResult>d__68.MoveNext() in C:\Users\Hesa\Documents\HesaElobuddy\eZ_Source\BananaLib\RestService\LoginQueue.cs:line 137
--- End of stack trace from previous location where exception was thrown ---
   at System.Runtime.CompilerServices.TaskAwaiter.ThrowForNonSuccess(Task task)
   at System.Runtime.CompilerServices.TaskAwaiter.HandleNonSuccessAndDebuggerNotification(Task task)
   at System.Runtime.CompilerServices.ConfiguredTaskAwaitable`1.ConfiguredTaskAwaiter.GetResult()
   at BananaLib.RestService.LoginQueue.<GetAuthToken>d__70.MoveNext() in C:\Users\Hesa\Documents\HesaElobuddy\eZ_Source\BananaLib\RestService\LoginQueue.cs:line 159
[11/16/2016 12:27:35 PM]    at Newtonsoft.Json.JsonTextReader.ParseValue()
   at Newtonsoft.Json.JsonTextReader.Read()
   at Newtonsoft.Json.Serialization.JsonSerializerInternalReader.ReadForType(JsonReader reader, JsonContract contract, Boolean hasConverter)
   at Newtonsoft.Json.Serialization.JsonSerializerInternalReader.Deserialize(JsonReader reader, Type objectType, Boolean checkAdditionalContent)
   at Newtonsoft.Json.JsonSerializer.DeserializeInternal(JsonReader reader, Type objectType)
   at Newtonsoft.Json.JsonConvert.DeserializeObject(String value, Type type, JsonSerializerSettings settings)
   at Newtonsoft.Json.JsonConvert.DeserializeObject[T](String value, JsonSerializerSettings settings)
   at Newtonsoft.Json.JsonConvert.DeserializeObject[T](String value)
   at BananaLib.RestService.LoginQueue.<GetAuthResult>d__68.MoveNext() in C:\Users\Hesa\Documents\HesaElobuddy\eZ_Source\BananaLib\RestService\LoginQueue.cs:line 137
--- End of stack trace from previous location where exception was thrown ---
   at System.Runtime.CompilerServices.TaskAwaiter.ThrowForNonSuccess(Task task)
   at System.Runtime.CompilerServices.TaskAwaiter.HandleNonSuccessAndDebuggerNotification(Task task)
   at System.Runtime.CompilerServices.ConfiguredTaskAwaitable`1.ConfiguredTaskAwaiter.GetResult()
   at BananaLib.RestService.LoginQueue.<GetAuthToken>d__70.MoveNext() in C:\Users\Hesa\Documents\HesaElobuddy\eZ_Source\BananaLib\RestService\LoginQueue.cs:line 159
[11/16/2016 12:35:31 PM]    at System.Runtime.CompilerServices.TaskAwaiter.ThrowForNonSuccess(Task task)
   at System.Runtime.CompilerServices.TaskAwaiter.HandleNonSuccessAndDebuggerNotification(Task task)
   at System.Runtime.CompilerServices.ConfiguredTaskAwaitable`1.ConfiguredTaskAwaiter.GetResult()
   at BananaLib.RestService.LoginQueue.<GetAuthResult>d__68.MoveNext() in C:\Users\Hesa\Documents\HesaElobuddy\eZ_Source\BananaLib\RestService\LoginQueue.cs:line 133
--- End of stack trace from previous location where exception was thrown ---
   at System.Runtime.CompilerServices.TaskAwaiter.ThrowForNonSuccess(Task task)
   at System.Runtime.CompilerServices.TaskAwaiter.HandleNonSuccessAndDebuggerNotification(Task task)
   at System.Runtime.CompilerServices.ConfiguredTaskAwaitable`1.ConfiguredTaskAwaiter.GetResult()
   at BananaLib.RestService.LoginQueue.<GetAuthToken>d__70.MoveNext() in C:\Users\Hesa\Documents\HesaElobuddy\eZ_Source\BananaLib\RestService\LoginQueue.cs:line 159
[11/16/2016 12:47:54 PM]    at System.Runtime.CompilerServices.TaskAwaiter.ThrowForNonSuccess(Task task)
   at System.Runtime.CompilerServices.TaskAwaiter.HandleNonSuccessAndDebuggerNotification(Task task)
   at System.Runtime.CompilerServices.ConfiguredTaskAwaitable`1.ConfiguredTaskAwaiter.GetResult()
   at BananaLib.RestService.LoginQueue.<GetAuthResult>d__68.MoveNext() in C:\Users\Hesa\Documents\HesaElobuddy\eZ_Source\BananaLib\RestService\LoginQueue.cs:line 133
--- End of stack trace from previous location where exception was thrown ---
   at System.Runtime.CompilerServices.TaskAwaiter.ThrowForNonSuccess(Task task)
   at System.Runtime.CompilerServices.TaskAwaiter.HandleNonSuccessAndDebuggerNotification(Task task)
   at System.Runtime.CompilerServices.ConfiguredTaskAwaitable`1.ConfiguredTaskAwaiter.GetResult()
   at BananaLib.RestService.LoginQueue.<GetAuthToken>d__70.MoveNext() in C:\Users\Hesa\Documents\HesaElobuddy\eZ_Source\BananaLib\RestService\LoginQueue.cs:line 159
[11/16/2016 12:48:19 PM]    at System.Runtime.CompilerServices.TaskAwaiter.ThrowForNonSuccess(Task task)
   at System.Runtime.CompilerServices.TaskAwaiter.HandleNonSuccessAndDebuggerNotification(Task task)
   at System.Runtime.CompilerServices.ConfiguredTaskAwaitable`1.ConfiguredTaskAwaiter.GetResult()
   at BananaLib.RestService.LoginQueue.<GetAuthResult>d__68.MoveNext() in C:\Users\Hesa\Documents\HesaElobuddy\eZ_Source\BananaLib\RestService\LoginQueue.cs:line 133
--- End of stack trace from previous location where exception was thrown ---
   at System.Runtime.CompilerServices.TaskAwaiter.ThrowForNonSuccess(Task task)
   at System.Runtime.CompilerServices.TaskAwaiter.HandleNonSuccessAndDebuggerNotification(Task task)
   at System.Runtime.CompilerServices.ConfiguredTaskAwaitable`1.ConfiguredTaskAwaiter.GetResult()
   at BananaLib.RestService.LoginQueue.<GetAuthToken>d__70.MoveNext() in C:\Users\Hesa\Documents\HesaElobuddy\eZ_Source\BananaLib\RestService\LoginQueue.cs:line 159
[11/16/2016 12:53:40 PM]    at System.Runtime.CompilerServices.TaskAwaiter.ThrowForNonSuccess(Task task)
   at System.Runtime.CompilerServices.TaskAwaiter.HandleNonSuccessAndDebuggerNotification(Task task)
   at System.Runtime.CompilerServices.ConfiguredTaskAwaitable`1.ConfiguredTaskAwaiter.GetResult()
   at BananaLib.RestService.LoginQueue.<GetAuthResult>d__68.MoveNext() in C:\Users\Hesa\Documents\HesaElobuddy\eZ_Source\BananaLib\RestService\LoginQueue.cs:line 133
--- End of stack trace from previous location where exception was thrown ---
   at System.Runtime.CompilerServices.TaskAwaiter.ThrowForNonSuccess(Task task)
   at System.Runtime.CompilerServices.TaskAwaiter.HandleNonSuccessAndDebuggerNotification(Task task)
   at System.Runtime.CompilerServices.ConfiguredTaskAwaitable`1.ConfiguredTaskAwaiter.GetResult()
   at BananaLib.RestService.LoginQueue.<GetAuthToken>d__70.MoveNext() in C:\Users\Hesa\Documents\HesaElobuddy\eZ_Source\BananaLib\RestService\LoginQueue.cs:line 159
[11/16/2016 1:53:24 PM]    at System.Runtime.CompilerServices.TaskAwaiter.ThrowForNonSuccess(Task task)
   at System.Runtime.CompilerServices.TaskAwaiter.HandleNonSuccessAndDebuggerNotification(Task task)
   at System.Runtime.CompilerServices.ConfiguredTaskAwaitable`1.ConfiguredTaskAwaiter.GetResult()
   at BananaLib.RestService.LoginQueue.<GetAuthResult>d__68.MoveNext() in C:\Users\Hesa\Documents\HesaElobuddy\eZ_Source\BananaLib\RestService\LoginQueue.cs:line 133
--- End of stack trace from previous location where exception was thrown ---
   at System.Runtime.CompilerServices.TaskAwaiter.ThrowForNonSuccess(Task task)
   at System.Runtime.CompilerServices.TaskAwaiter.HandleNonSuccessAndDebuggerNotification(Task task)
   at System.Runtime.CompilerServices.ConfiguredTaskAwaitable`1.ConfiguredTaskAwaiter.GetResult()
   at BananaLib.RestService.LoginQueue.<GetAuthToken>d__70.MoveNext() in C:\Users\Hesa\Documents\HesaElobuddy\eZ_Source\BananaLib\RestService\LoginQueue.cs:line 159
[11/16/2016 1:54:23 PM]    at System.Runtime.CompilerServices.TaskAwaiter.ThrowForNonSuccess(Task task)
   at System.Runtime.CompilerServices.TaskAwaiter.HandleNonSuccessAndDebuggerNotification(Task task)
   at System.Runtime.CompilerServices.ConfiguredTaskAwaitable`1.ConfiguredTaskAwaiter.GetResult()
   at BananaLib.RestService.LoginQueue.<GetAuthResult>d__68.MoveNext() in C:\Users\Hesa\Documents\HesaElobuddy\eZ_Source\BananaLib\RestService\LoginQueue.cs:line 133
--- End of stack trace from previous location where exception was thrown ---
   at System.Runtime.CompilerServices.TaskAwaiter.ThrowForNonSuccess(Task task)
   at System.Runtime.CompilerServices.TaskAwaiter.HandleNonSuccessAndDebuggerNotification(Task task)
   at System.Runtime.CompilerServices.ConfiguredTaskAwaitable`1.ConfiguredTaskAwaiter.GetResult()
   at BananaLib.RestService.LoginQueue.<GetAuthToken>d__70.MoveNext() in C:\Users\Hesa\Documents\HesaElobuddy\eZ_Source\BananaLib\RestService\LoginQueue.cs:line 159
[11/16/2016 2:03:27 PM]    at System.Net.WebClient.DownloadDataInternal(Uri address, WebRequest& request)
   at System.Net.WebClient.DownloadString(Uri address)
   at System.Net.WebClient.DownloadString(String address)
   at BananaLib.RestService.LoginQueue.<GetAuthResult>d__68.MoveNext() in C:\Users\Hesa\Documents\HesaElobuddy\eZ_Source\BananaLib\RestService\LoginQueue.cs:line 133
--- End of stack trace from previous location where exception was thrown ---
   at System.Runtime.CompilerServices.TaskAwaiter.ThrowForNonSuccess(Task task)
   at System.Runtime.CompilerServices.TaskAwaiter.HandleNonSuccessAndDebuggerNotification(Task task)
   at System.Runtime.CompilerServices.ConfiguredTaskAwaitable`1.ConfiguredTaskAwaiter.GetResult()
   at BananaLib.RestService.LoginQueue.<GetAuthToken>d__70.MoveNext() in C:\Users\Hesa\Documents\HesaElobuddy\eZ_Source\BananaLib\RestService\LoginQueue.cs:line 171
[11/16/2016 2:05:02 PM]    at System.Net.WebClient.DownloadDataInternal(Uri address, WebRequest& request)
   at System.Net.WebClient.DownloadString(Uri address)
   at System.Net.WebClient.DownloadString(String address)
   at BananaLib.RestService.LoginQueue.<GetAuthResult>d__68.MoveNext() in C:\Users\Hesa\Documents\HesaElobuddy\eZ_Source\BananaLib\RestService\LoginQueue.cs:line 133
--- End of stack trace from previous location where exception was thrown ---
   at System.Runtime.CompilerServices.TaskAwaiter.ThrowForNonSuccess(Task task)
   at System.Runtime.CompilerServices.TaskAwaiter.HandleNonSuccessAndDebuggerNotification(Task task)
   at System.Runtime.CompilerServices.ConfiguredTaskAwaitable`1.ConfiguredTaskAwaiter.GetResult()
   at BananaLib.RestService.LoginQueue.<GetAuthToken>d__70.MoveNext() in C:\Users\Hesa\Documents\HesaElobuddy\eZ_Source\BananaLib\RestService\LoginQueue.cs:line 171
[11/16/2016 2:13:02 PM]    at System.Net.WebClient.DownloadDataInternal(Uri address, WebRequest& request)
   at System.Net.WebClient.DownloadString(Uri address)
   at System.Net.WebClient.DownloadString(String address)
   at BananaLib.RestService.LoginQueue.<GetAuthResult>d__68.MoveNext() in C:\Users\Hesa\Documents\HesaElobuddy\eZ_Source\BananaLib\RestService\LoginQueue.cs:line 139
--- End of stack trace from previous location where exception was thrown ---
   at System.Runtime.CompilerServices.TaskAwaiter.ThrowForNonSuccess(Task task)
   at System.Runtime.CompilerServices.TaskAwaiter.HandleNonSuccessAndDebuggerNotification(Task task)
   at System.Runtime.CompilerServices.ConfiguredTaskAwaitable`1.ConfiguredTaskAwaiter.GetResult()
   at BananaLib.RestService.LoginQueue.<GetAuthToken>d__70.MoveNext() in C:\Users\Hesa\Documents\HesaElobuddy\eZ_Source\BananaLib\RestService\LoginQueue.cs:line 177
[11/16/2016 2:15:45 PM]    at BananaLib.RestService.LoginQueue.<GetAuthToken>d__70.MoveNext() in C:\Users\Hesa\Documents\HesaElobuddy\eZ_Source\BananaLib\RestService\LoginQueue.cs:line 293
[11/17/2016 12:49:35 AM]    at System.Net.WebClient.DownloadDataInternal(Uri address, WebRequest& request)
   at System.Net.WebClient.DownloadString(Uri address)
   at System.Net.WebClient.DownloadString(String address)
   at BananaLib.RestService.LoginQueue.<GetAuthResult>d__68.MoveNext() in C:\Users\Hesa\Documents\HesaElobuddy\eZ_Source\BananaLib\RestService\LoginQueue.cs:line 140
--- End of stack trace from previous location where exception was thrown ---
   at System.Runtime.CompilerServices.TaskAwaiter.ThrowForNonSuccess(Task task)
   at System.Runtime.CompilerServices.TaskAwaiter.HandleNonSuccessAndDebuggerNotification(Task task)
   at System.Runtime.CompilerServices.ConfiguredTaskAwaitable`1.ConfiguredTaskAwaiter.GetResult()
   at BananaLib.RestService.LoginQueue.<GetAuthToken>d__70.MoveNext() in C:\Users\Hesa\Documents\HesaElobuddy\eZ_Source\BananaLib\RestService\LoginQueue.cs:line 178
[11/17/2016 12:54:03 AM]    at System.Net.WebClient.DownloadDataInternal(Uri address, WebRequest& request)
   at System.Net.WebClient.DownloadString(Uri address)
   at System.Net.WebClient.DownloadString(String address)
   at BananaLib.RestService.LoginQueue.<GetAuthResult>d__68.MoveNext() in C:\Users\Hesa\Documents\HesaElobuddy\eZ_Source\BananaLib\RestService\LoginQueue.cs:line 140
--- End of stack trace from previous location where exception was thrown ---
   at System.Runtime.CompilerServices.TaskAwaiter.ThrowForNonSuccess(Task task)
   at System.Runtime.CompilerServices.TaskAwaiter.HandleNonSuccessAndDebuggerNotification(Task task)
   at System.Runtime.CompilerServices.ConfiguredTaskAwaitable`1.ConfiguredTaskAwaiter.GetResult()
   at BananaLib.RestService.LoginQueue.<GetAuthToken>d__70.MoveNext() in C:\Users\Hesa\Documents\HesaElobuddy\eZ_Source\BananaLib\RestService\LoginQueue.cs:line 178
[11/17/2016 12:54:29 AM]    at System.Net.WebClient.DownloadDataInternal(Uri address, WebRequest& request)
   at System.Net.WebClient.DownloadString(Uri address)
   at System.Net.WebClient.DownloadString(String address)
   at BananaLib.RestService.LoginQueue.<GetAuthResult>d__68.MoveNext() in C:\Users\Hesa\Documents\HesaElobuddy\eZ_Source\BananaLib\RestService\LoginQueue.cs:line 140
--- End of stack trace from previous location where exception was thrown ---
   at System.Runtime.CompilerServices.TaskAwaiter.ThrowForNonSuccess(Task task)
   at System.Runtime.CompilerServices.TaskAwaiter.HandleNonSuccessAndDebuggerNotification(Task task)
   at System.Runtime.CompilerServices.ConfiguredTaskAwaitable`1.ConfiguredTaskAwaiter.GetResult()
   at BananaLib.RestService.LoginQueue.<GetAuthToken>d__70.MoveNext() in C:\Users\Hesa\Documents\HesaElobuddy\eZ_Source\BananaLib\RestService\LoginQueue.cs:line 178
[11/17/2016 1:13:27 AM] 
[11/17/2016 3:27:13 AM]    at System.Runtime.CompilerServices.TaskAwaiter.ThrowForNonSuccess(Task task)
   at System.Runtime.CompilerServices.TaskAwaiter.HandleNonSuccessAndDebuggerNotification(Task task)
   at System.Runtime.CompilerServices.ConfiguredTaskAwaitable`1.ConfiguredTaskAwaiter.GetResult()
   at BananaLib.RestService.LoginQueue.<GetAuthResult>d__68.MoveNext() in C:\Users\Hesa\Documents\HesaElobuddy\eZ_Source\BananaLib\RestService\LoginQueue.cs:line 133
--- End of stack trace from previous location where exception was thrown ---
   at System.Runtime.CompilerServices.TaskAwaiter.ThrowForNonSuccess(Task task)
   at System.Runtime.CompilerServices.TaskAwaiter.HandleNonSuccessAndDebuggerNotification(Task task)
   at System.Runtime.CompilerServices.ConfiguredTaskAwaitable`1.ConfiguredTaskAwaiter.GetResult()
   at BananaLib.RestService.LoginQueue.<GetAuthToken>d__70.MoveNext() in C:\Users\Hesa\Documents\HesaElobuddy\eZ_Source\BananaLib\RestService\LoginQueue.cs:line 159
[11/17/2016 3:28:18 AM]    at System.Runtime.CompilerServices.TaskAwaiter.ThrowForNonSuccess(Task task)
   at System.Runtime.CompilerServices.TaskAwaiter.HandleNonSuccessAndDebuggerNotification(Task task)
   at System.Runtime.CompilerServices.ConfiguredTaskAwaitable`1.ConfiguredTaskAwaiter.GetResult()
   at BananaLib.RestService.LoginQueue.<GetAuthResult>d__68.MoveNext() in C:\Users\Hesa\Documents\HesaElobuddy\eZ_Source\BananaLib\RestService\LoginQueue.cs:line 133
--- End of stack trace from previous location where exception was thrown ---
   at System.Runtime.CompilerServices.TaskAwaiter.ThrowForNonSuccess(Task task)
   at System.Runtime.CompilerServices.TaskAwaiter.HandleNonSuccessAndDebuggerNotification(Task task)
   at System.Runtime.CompilerServices.ConfiguredTaskAwaitable`1.ConfiguredTaskAwaiter.GetResult()
   at BananaLib.RestService.LoginQueue.<GetAuthToken>d__70.MoveNext() in C:\Users\Hesa\Documents\HesaElobuddy\eZ_Source\BananaLib\RestService\LoginQueue.cs:line 159
[11/17/2016 5:49:31 AM] 
[11/17/2016 6:11:02 AM] 
[11/17/2016 6:31:11 AM] 
[11/17/2016 6:51:31 AM] 
[11/17/2016 7:22:29 AM] 
[11/17/2016 8:57:27 AM] 
[11/17/2016 9:25:27 AM] 
[11/17/2016 11:59:21 AM] 
[11/17/2016 11:59:22 AM]    at Newtonsoft.Json.JsonTextReader.Read()
   at Newtonsoft.Json.Linq.JObject.Parse(String json, JsonLoadSettings settings)
   at Newtonsoft.Json.Linq.JObject.Parse(String json)
   at ezBot.ezBot.<SetMasteries>d__110.MoveNext() in C:\Users\Hesa\Documents\HesaElobuddy\eZ_Source\ezBot\ezBot.cs:line 1930
[11/17/2016 12:34:22 PM] 
[11/17/2016 12:34:22 PM]    at Newtonsoft.Json.JsonTextReader.Read()
   at Newtonsoft.Json.Linq.JObject.Parse(String json, JsonLoadSettings settings)
   at Newtonsoft.Json.Linq.JObject.Parse(String json)
   at ezBot.ezBot.<SetMasteries>d__110.MoveNext() in C:\Users\Hesa\Documents\HesaElobuddy\eZ_Source\ezBot\ezBot.cs:line 1934
[11/17/2016 1:01:06 PM] 
[11/17/2016 1:01:50 PM] 
[11/17/2016 1:22:01 PM] 
[11/17/2016 1:46:16 PM] 
[11/17/2016 2:31:39 PM] 
[11/17/2016 2:52:53 PM] 
[11/17/2016 2:52:53 PM]    at Newtonsoft.Json.JsonTextReader.Read()
   at Newtonsoft.Json.Linq.JObject.Parse(String json, JsonLoadSettings settings)
   at Newtonsoft.Json.Linq.JObject.Parse(String json)
   at ezBot.ezBot.<SetMasteries>d__110.MoveNext() in C:\Users\Hesa\Documents\HesaElobuddy\eZ_Source\ezBot\ezBot.cs:line 1935
[11/17/2016 2:54:13 PM] 
[11/17/2016 2:54:13 PM]    at System.Net.WebClient.DownloadDataInternal(Uri address, WebRequest& request)
   at System.Net.WebClient.DownloadString(Uri address)
   at System.Net.WebClient.DownloadString(String address)
   at ezBot.ezBot.<SetMasteries>d__110.MoveNext() in C:\Users\Hesa\Documents\HesaElobuddy\eZ_Source\ezBot\ezBot.cs:line 1931
[11/17/2016 6:37:14 PM] 
[11/17/2016 6:37:14 PM]    at Newtonsoft.Json.JsonTextReader.Read()
   at Newtonsoft.Json.Linq.JObject.Parse(String json, JsonLoadSettings settings)
   at Newtonsoft.Json.Linq.JObject.Parse(String json)
   at ezBot.ezBot.<SetMasteries>d__110.MoveNext() in C:\Users\Hesa\Documents\HesaElobuddy\eZ_Source\ezBot\ezBot.cs:line 1938
[11/17/2016 7:08:18 PM] 
[11/17/2016 7:34:00 PM] 
[11/17/2016 8:51:23 PM] 
[11/17/2016 10:36:33 PM]    at System.Boolean.Parse(String value)
   at System.Convert.ToBoolean(String value)
   at ezBot.Program.LoadConfigs() in C:\Users\Hesa\Documents\HesaElobuddy\eZ_Source\ezBot\Program.cs:line 505
[11/17/2016 10:39:02 PM] 
[11/17/2016 11:02:11 PM] 
[11/17/2016 11:02:55 PM] 
[11/17/2016 11:02:55 PM]    at Newtonsoft.Json.JsonTextReader.Read()
   at Newtonsoft.Json.Linq.JObject.Parse(String json, JsonLoadSettings settings)
   at Newtonsoft.Json.Linq.JObject.Parse(String json)
   at ezBot.ezBot.<SetMasteries>d__110.MoveNext() in C:\Users\Hesa\Documents\HesaElobuddy\eZ_Source\ezBot\ezBot.cs:line 1943
[11/17/2016 11:04:42 PM] 
[11/17/2016 11:31:33 PM] 
[11/17/2016 11:31:34 PM]    at Newtonsoft.Json.JsonTextReader.Read()
   at Newtonsoft.Json.Linq.JObject.Parse(String json, JsonLoadSettings settings)
   at Newtonsoft.Json.Linq.JObject.Parse(String json)
   at ezBot.ezBot.<SetMasteries>d__110.MoveNext() in C:\Users\Hesa\Documents\HesaElobuddy\eZ_Source\ezBot\ezBot.cs:line 1943
[11/18/2016 12:08:55 AM] 
[11/18/2016 12:08:55 AM]    at Newtonsoft.Json.JsonTextReader.Read()
   at Newtonsoft.Json.Linq.JObject.Parse(String json, JsonLoadSettings settings)
   at Newtonsoft.Json.Linq.JObject.Parse(String json)
   at ezBot.ezBot.<SetMasteries>d__110.MoveNext() in C:\Users\Hesa\Documents\HesaElobuddy\eZ_Source\ezBot\ezBot.cs:line 1943
[11/18/2016 12:28:47 AM] 
[11/18/2016 1:02:11 AM] 
[11/18/2016 1:02:12 AM]    at Newtonsoft.Json.JsonTextReader.Read()
   at Newtonsoft.Json.Linq.JObject.Parse(String json, JsonLoadSettings settings)
   at Newtonsoft.Json.Linq.JObject.Parse(String json)
   at ezBot.ezBot.<SetMasteries>d__110.MoveNext() in C:\Users\Hesa\Documents\HesaElobuddy\eZ_Source\ezBot\ezBot.cs:line 1943
[11/18/2016 1:25:33 AM] 
[11/18/2016 1:27:00 AM] 
[11/18/2016 1:27:00 AM]    at Newtonsoft.Json.JsonTextReader.Read()
   at Newtonsoft.Json.Linq.JObject.Parse(String json, JsonLoadSettings settings)
   at Newtonsoft.Json.Linq.JObject.Parse(String json)
   at ezBot.ezBot.<SetMasteries>d__110.MoveNext() in C:\Users\Hesa\Documents\HesaElobuddy\eZ_Source\ezBot\ezBot.cs:line 1943
[11/18/2016 2:08:55 AM] 
[11/18/2016 2:09:59 AM] 
[11/18/2016 2:34:01 AM] 
[11/18/2016 2:59:43 AM] 
[11/18/2016 2:59:43 AM]    at Newtonsoft.Json.JsonTextReader.Read()
   at Newtonsoft.Json.Linq.JObject.Parse(String json, JsonLoadSettings settings)
   at Newtonsoft.Json.Linq.JObject.Parse(String json)
   at ezBot.ezBot.<SetMasteries>d__110.MoveNext() in C:\Users\Hesa\Documents\HesaElobuddy\eZ_Source\ezBot\ezBot.cs:line 1943
[11/18/2016 3:34:16 AM] 
[11/18/2016 3:34:16 AM]    at Newtonsoft.Json.JsonTextReader.Read()
   at Newtonsoft.Json.Linq.JObject.Parse(String json, JsonLoadSettings settings)
   at Newtonsoft.Json.Linq.JObject.Parse(String json)
   at ezBot.ezBot.<SetMasteries>d__110.MoveNext() in C:\Users\Hesa\Documents\HesaElobuddy\eZ_Source\ezBot\ezBot.cs:line 1943
[11/18/2016 3:35:26 AM] 
[11/18/2016 4:10:54 AM] 
[11/18/2016 4:49:10 AM] 
[11/18/2016 4:49:10 AM]    at Newtonsoft.Json.JsonTextReader.Read()
   at Newtonsoft.Json.Linq.JObject.Parse(String json, JsonLoadSettings settings)
   at Newtonsoft.Json.Linq.JObject.Parse(String json)
   at ezBot.ezBot.<SetMasteries>d__110.MoveNext() in C:\Users\Hesa\Documents\HesaElobuddy\eZ_Source\ezBot\ezBot.cs:line 1943
[11/18/2016 5:18:24 AM] 
[11/18/2016 5:19:14 AM] 
[11/18/2016 5:19:15 AM]    at Newtonsoft.Json.JsonTextReader.Read()
   at Newtonsoft.Json.Linq.JObject.Parse(String json, JsonLoadSettings settings)
   at Newtonsoft.Json.Linq.JObject.Parse(String json)
   at ezBot.ezBot.<SetMasteries>d__110.MoveNext() in C:\Users\Hesa\Documents\HesaElobuddy\eZ_Source\ezBot\ezBot.cs:line 1943
[11/18/2016 8:48:00 PM]    at BananaLib.RestService.LoginQueue.<GetAuthToken>d__70.MoveNext() in C:\Users\Hesa\Documents\HesaElobuddy\eZ_Source\BananaLib\RestService\LoginQueue.cs:line 161
[11/18/2016 8:50:34 PM] 
[11/18/2016 8:51:51 PM] 
[11/20/2016 6:38:34 AM] 
[11/20/2016 6:39:47 AM] 
[11/20/2016 6:39:54 AM]    at Newtonsoft.Json.JsonTextReader.Read()
   at Newtonsoft.Json.Linq.JObject.Parse(String json, JsonLoadSettings settings)
   at Newtonsoft.Json.Linq.JObject.Parse(String json)
   at ezBot.ezBot.<SetMasteries>d__110.MoveNext() in C:\Users\Hesa\Documents\HesaElobuddy\eZ_Source\ezBot\ezBot.cs:line 2019
[11/20/2016 7:12:24 AM] 
[11/20/2016 7:12:31 AM]    at System.Net.WebClient.DownloadDataInternal(Uri address, WebRequest& request)
   at System.Net.WebClient.DownloadString(Uri address)
   at System.Net.WebClient.DownloadString(String address)
   at ezBot.ezBot.<SetMasteries>d__110.MoveNext() in C:\Users\Hesa\Documents\HesaElobuddy\eZ_Source\ezBot\ezBot.cs:line 2015
[11/20/2016 7:35:31 AM] 
[11/20/2016 7:56:20 AM] 
[11/21/2016 3:45:15 PM] 
[11/21/2016 3:45:47 PM] 
[11/21/2016 5:51:08 PM] 
[11/21/2016 6:30:08 PM] 
[11/21/2016 6:51:59 PM] 
[11/21/2016 7:14:42 PM] 
[11/21/2016 7:46:13 PM] 
[11/22/2016 2:13:39 PM]    at System.Runtime.CompilerServices.TaskAwaiter.ThrowForNonSuccess(Task task)
   at System.Runtime.CompilerServices.TaskAwaiter.HandleNonSuccessAndDebuggerNotification(Task task)
   at System.Runtime.CompilerServices.ConfiguredTaskAwaitable`1.ConfiguredTaskAwaiter.GetResult()
   at BananaLib.RestService.LoginQueue.<GetAuthResult>d__68.MoveNext() in C:\Users\Hesa\Documents\ezbot-by-hesa\BananaLib\RestService\LoginQueue.cs:line 133
--- End of stack trace from previous location where exception was thrown ---
   at System.Runtime.CompilerServices.TaskAwaiter.ThrowForNonSuccess(Task task)
   at System.Runtime.CompilerServices.TaskAwaiter.HandleNonSuccessAndDebuggerNotification(Task task)
   at System.Runtime.CompilerServices.ConfiguredTaskAwaitable`1.ConfiguredTaskAwaiter.GetResult()
   at BananaLib.RestService.LoginQueue.<GetAuthToken>d__70.MoveNext() in C:\Users\Hesa\Documents\ezbot-by-hesa\BananaLib\RestService\LoginQueue.cs:line 159
[11/22/2016 2:14:20 PM] 
[11/22/2016 2:14:20 PM]    at BananaLib.LoLClient.<ConnectAndLogin>d__177.MoveNext() in C:\Users\Hesa\Documents\ezbot-by-hesa\BananaLib\LoLClient.cs:line 710
[11/22/2016 2:15:36 PM] 
[11/22/2016 2:15:36 PM]    at BananaLib.LoLClient.<ConnectAndLogin>d__177.MoveNext() in C:\Users\Hesa\Documents\ezbot-by-hesa\BananaLib\LoLClient.cs:line 710
[11/22/2016 2:16:09 PM] 
[11/22/2016 2:16:51 PM] 
[11/22/2016 2:16:51 PM]    at BananaLib.LoLClient.<ConnectAndLogin>d__177.MoveNext() in C:\Users\Hesa\Documents\ezbot-by-hesa\BananaLib\LoLClient.cs:line 710
[11/25/2016 11:22:21 PM]    at System.Runtime.CompilerServices.TaskAwaiter.ThrowForNonSuccess(Task task)
   at System.Runtime.CompilerServices.TaskAwaiter.HandleNonSuccessAndDebuggerNotification(Task task)
   at System.Runtime.CompilerServices.ConfiguredTaskAwaitable`1.ConfiguredTaskAwaiter.GetResult()
   at BananaLib.RestService.LoginQueue.<GetAuthResult>d__68.MoveNext() in C:\Users\Hesa\Documents\ezbot-by-hesa\BananaLib\RestService\LoginQueue.cs:line 133
--- End of stack trace from previous location where exception was thrown ---
   at System.Runtime.CompilerServices.TaskAwaiter.ThrowForNonSuccess(Task task)
   at System.Runtime.CompilerServices.TaskAwaiter.HandleNonSuccessAndDebuggerNotification(Task task)
   at System.Runtime.CompilerServices.ConfiguredTaskAwaitable`1.ConfiguredTaskAwaiter.GetResult()
   at BananaLib.RestService.LoginQueue.<GetAuthToken>d__70.MoveNext() in C:\Users\Hesa\Documents\ezbot-by-hesa\BananaLib\RestService\LoginQueue.cs:line 159
[11/25/2016 11:25:04 PM]    at BananaLib.RestService.LoginQueue.<GetAuthToken>d__70.MoveNext() in C:\Users\Hesa\Documents\ezbot-by-hesa\BananaLib\RestService\LoginQueue.cs:line 161
[11/25/2016 11:25:16 PM]    at BananaLib.RestService.LoginQueue.<GetAuthToken>d__70.MoveNext() in C:\Users\Hesa\Documents\ezbot-by-hesa\BananaLib\RestService\LoginQueue.cs:line 161
[11/25/2016 11:30:16 PM]    at System.Runtime.CompilerServices.TaskAwaiter.ThrowForNonSuccess(Task task)
   at System.Runtime.CompilerServices.TaskAwaiter.HandleNonSuccessAndDebuggerNotification(Task task)
   at System.Runtime.CompilerServices.ConfiguredTaskAwaitable`1.ConfiguredTaskAwaiter.GetResult()
   at BananaLib.RestService.LoginQueue.<GetAuthResult>d__68.MoveNext() in C:\Users\Hesa\Documents\ezbot-by-hesa\BananaLib\RestService\LoginQueue.cs:line 133
--- End of stack trace from previous location where exception was thrown ---
   at System.Runtime.CompilerServices.TaskAwaiter.ThrowForNonSuccess(Task task)
   at System.Runtime.CompilerServices.TaskAwaiter.HandleNonSuccessAndDebuggerNotification(Task task)
   at System.Runtime.CompilerServices.ConfiguredTaskAwaitable`1.ConfiguredTaskAwaiter.GetResult()
   at BananaLib.RestService.LoginQueue.<GetAuthToken>d__70.MoveNext() in C:\Users\Hesa\Documents\ezbot-by-hesa\BananaLib\RestService\LoginQueue.cs:line 159
[11/25/2016 11:39:02 PM]    at System.Runtime.CompilerServices.TaskAwaiter.ThrowForNonSuccess(Task task)
   at System.Runtime.CompilerServices.TaskAwaiter.HandleNonSuccessAndDebuggerNotification(Task task)
   at System.Runtime.CompilerServices.ConfiguredTaskAwaitable`1.ConfiguredTaskAwaiter.GetResult()
   at BananaLib.RestService.LoginQueue.<GetAuthResult>d__68.MoveNext() in C:\Users\Hesa\Documents\ezbot-by-hesa\BananaLib\RestService\LoginQueue.cs:line 133
--- End of stack trace from previous location where exception was thrown ---
   at System.Runtime.CompilerServices.TaskAwaiter.ThrowForNonSuccess(Task task)
   at System.Runtime.CompilerServices.TaskAwaiter.HandleNonSuccessAndDebuggerNotification(Task task)
   at System.Runtime.CompilerServices.ConfiguredTaskAwaitable`1.ConfiguredTaskAwaiter.GetResult()
   at BananaLib.RestService.LoginQueue.<GetAuthToken>d__70.MoveNext() in C:\Users\Hesa\Documents\ezbot-by-hesa\BananaLib\RestService\LoginQueue.cs:line 159
[11/25/2016 11:39:40 PM]    at System.Runtime.CompilerServices.TaskAwaiter.ThrowForNonSuccess(Task task)
   at System.Runtime.CompilerServices.TaskAwaiter.HandleNonSuccessAndDebuggerNotification(Task task)
   at System.Runtime.CompilerServices.ConfiguredTaskAwaitable`1.ConfiguredTaskAwaiter.GetResult()
   at BananaLib.RestService.LoginQueue.<GetAuthResult>d__68.MoveNext() in C:\Users\Hesa\Documents\ezbot-by-hesa\BananaLib\RestService\LoginQueue.cs:line 133
--- End of stack trace from previous location where exception was thrown ---
   at System.Runtime.CompilerServices.TaskAwaiter.ThrowForNonSuccess(Task task)
   at System.Runtime.CompilerServices.TaskAwaiter.HandleNonSuccessAndDebuggerNotification(Task task)
   at System.Runtime.CompilerServices.ConfiguredTaskAwaitable`1.ConfiguredTaskAwaiter.GetResult()
   at BananaLib.RestService.LoginQueue.<GetAuthToken>d__70.MoveNext() in C:\Users\Hesa\Documents\ezbot-by-hesa\BananaLib\RestService\LoginQueue.cs:line 159
[11/25/2016 11:40:33 PM]    at System.Runtime.CompilerServices.TaskAwaiter.ThrowForNonSuccess(Task task)
   at System.Runtime.CompilerServices.TaskAwaiter.HandleNonSuccessAndDebuggerNotification(Task task)
   at System.Runtime.CompilerServices.ConfiguredTaskAwaitable`1.ConfiguredTaskAwaiter.GetResult()
   at BananaLib.RestService.LoginQueue.<GetAuthResult>d__68.MoveNext() in C:\Users\Hesa\Documents\ezbot-by-hesa\BananaLib\RestService\LoginQueue.cs:line 133
--- End of stack trace from previous location where exception was thrown ---
   at System.Runtime.CompilerServices.TaskAwaiter.ThrowForNonSuccess(Task task)
   at System.Runtime.CompilerServices.TaskAwaiter.HandleNonSuccessAndDebuggerNotification(Task task)
   at System.Runtime.CompilerServices.ConfiguredTaskAwaitable`1.ConfiguredTaskAwaiter.GetResult()
   at BananaLib.RestService.LoginQueue.<GetAuthToken>d__70.MoveNext() in C:\Users\Hesa\Documents\ezbot-by-hesa\BananaLib\RestService\LoginQueue.cs:line 159
[12/6/2016 2:57:53 AM]    at RtmpSharp.Net.RtmpClient.<InvokeAsync>d__49`1.MoveNext() in C:\Users\Hesa\Documents\ezbot-by-hesa\rtmp-sharp\RtmpSharp\Net\RtmpClient.cs:line 390
--- End of stack trace from previous location where exception was thrown ---
   at System.Runtime.CompilerServices.TaskAwaiter.ThrowForNonSuccess(Task task)
   at System.Runtime.CompilerServices.TaskAwaiter.HandleNonSuccessAndDebuggerNotification(Task task)
   at System.Runtime.CompilerServices.TaskAwaiter`1.GetResult()
   at ezBot.ezBot.<connection_OnMessageReceived>d__90.MoveNext() in C:\Users\Hesa\Documents\ezbot-by-hesa\ezBot\ezBot.cs:line 556
[12/6/2016 3:48:41 AM] Access is denied
[12/6/2016 3:48:41 AM] Access is denied
[12/14/2016 8:46:55 AM]    at Newtonsoft.Json.JsonTextReader.ParseValue()
   at Newtonsoft.Json.JsonTextReader.Read()
   at Newtonsoft.Json.Serialization.JsonSerializerInternalReader.ReadForType(JsonReader reader, JsonContract contract, Boolean hasConverter)
   at Newtonsoft.Json.Serialization.JsonSerializerInternalReader.Deserialize(JsonReader reader, Type objectType, Boolean checkAdditionalContent)
   at Newtonsoft.Json.JsonSerializer.DeserializeInternal(JsonReader reader, Type objectType)
   at Newtonsoft.Json.JsonConvert.DeserializeObject(String value, Type type, JsonSerializerSettings settings)
   at Newtonsoft.Json.JsonConvert.DeserializeObject[T](String value, JsonSerializerSettings settings)
   at Newtonsoft.Json.JsonConvert.DeserializeObject[T](String value)
   at BananaLib.RestService.LoginQueue.<GetAuthResult>d__68.MoveNext() in C:\Users\Hesa\Documents\ezbot-by-hesa\BananaLib\RestService\LoginQueue.cs:line 137
--- End of stack trace from previous location where exception was thrown ---
   at System.Runtime.CompilerServices.TaskAwaiter.ThrowForNonSuccess(Task task)
   at System.Runtime.CompilerServices.TaskAwaiter.HandleNonSuccessAndDebuggerNotification(Task task)
   at System.Runtime.CompilerServices.ConfiguredTaskAwaitable`1.ConfiguredTaskAwaiter.GetResult()
   at BananaLib.RestService.LoginQueue.<GetAuthToken>d__70.MoveNext() in C:\Users\Hesa\Documents\ezbot-by-hesa\BananaLib\RestService\LoginQueue.cs:line 159
[12/14/2016 8:46:56 AM]    at Newtonsoft.Json.JsonTextReader.ParseValue()
   at Newtonsoft.Json.JsonTextReader.Read()
   at Newtonsoft.Json.Serialization.JsonSerializerInternalReader.ReadForType(JsonReader reader, JsonContract contract, Boolean hasConverter)
   at Newtonsoft.Json.Serialization.JsonSerializerInternalReader.Deserialize(JsonReader reader, Type objectType, Boolean checkAdditionalContent)
   at Newtonsoft.Json.JsonSerializer.DeserializeInternal(JsonReader reader, Type objectType)
   at Newtonsoft.Json.JsonConvert.DeserializeObject(String value, Type type, JsonSerializerSettings settings)
   at Newtonsoft.Json.JsonConvert.DeserializeObject[T](String value, JsonSerializerSettings settings)
   at Newtonsoft.Json.JsonConvert.DeserializeObject[T](String value)
   at BananaLib.RestService.LoginQueue.<GetAuthResult>d__68.MoveNext() in C:\Users\Hesa\Documents\ezbot-by-hesa\BananaLib\RestService\LoginQueue.cs:line 137
--- End of stack trace from previous location where exception was thrown ---
   at System.Runtime.CompilerServices.TaskAwaiter.ThrowForNonSuccess(Task task)
   at System.Runtime.CompilerServices.TaskAwaiter.HandleNonSuccessAndDebuggerNotification(Task task)
   at System.Runtime.CompilerServices.ConfiguredTaskAwaitable`1.ConfiguredTaskAwaiter.GetResult()
   at BananaLib.RestService.LoginQueue.<GetAuthToken>d__70.MoveNext() in C:\Users\Hesa\Documents\ezbot-by-hesa\BananaLib\RestService\LoginQueue.cs:line 159
[12/14/2016 8:46:57 AM]    at Newtonsoft.Json.JsonTextReader.ParseValue()
   at Newtonsoft.Json.JsonTextReader.Read()
   at Newtonsoft.Json.Serialization.JsonSerializerInternalReader.ReadForType(JsonReader reader, JsonContract contract, Boolean hasConverter)
   at Newtonsoft.Json.Serialization.JsonSerializerInternalReader.Deserialize(JsonReader reader, Type objectType, Boolean checkAdditionalContent)
   at Newtonsoft.Json.JsonSerializer.DeserializeInternal(JsonReader reader, Type objectType)
   at Newtonsoft.Json.JsonConvert.DeserializeObject(String value, Type type, JsonSerializerSettings settings)
   at Newtonsoft.Json.JsonConvert.DeserializeObject[T](String value, JsonSerializerSettings settings)
   at Newtonsoft.Json.JsonConvert.DeserializeObject[T](String value)
   at BananaLib.RestService.LoginQueue.<GetAuthResult>d__68.MoveNext() in C:\Users\Hesa\Documents\ezbot-by-hesa\BananaLib\RestService\LoginQueue.cs:line 137
--- End of stack trace from previous location where exception was thrown ---
   at System.Runtime.CompilerServices.TaskAwaiter.ThrowForNonSuccess(Task task)
   at System.Runtime.CompilerServices.TaskAwaiter.HandleNonSuccessAndDebuggerNotification(Task task)
   at System.Runtime.CompilerServices.ConfiguredTaskAwaitable`1.ConfiguredTaskAwaiter.GetResult()
   at BananaLib.RestService.LoginQueue.<GetAuthToken>d__70.MoveNext() in C:\Users\Hesa\Documents\ezbot-by-hesa\BananaLib\RestService\LoginQueue.cs:line 159
[12/14/2016 8:46:58 AM]    at Newtonsoft.Json.JsonTextReader.ParseValue()
   at Newtonsoft.Json.JsonTextReader.Read()
   at Newtonsoft.Json.Serialization.JsonSerializerInternalReader.ReadForType(JsonReader reader, JsonContract contract, Boolean hasConverter)
   at Newtonsoft.Json.Serialization.JsonSerializerInternalReader.Deserialize(JsonReader reader, Type objectType, Boolean checkAdditionalContent)
   at Newtonsoft.Json.JsonSerializer.DeserializeInternal(JsonReader reader, Type objectType)
   at Newtonsoft.Json.JsonConvert.DeserializeObject(String value, Type type, JsonSerializerSettings settings)
   at Newtonsoft.Json.JsonConvert.DeserializeObject[T](String value, JsonSerializerSettings settings)
   at Newtonsoft.Json.JsonConvert.DeserializeObject[T](String value)
   at BananaLib.RestService.LoginQueue.<GetAuthResult>d__68.MoveNext() in C:\Users\Hesa\Documents\ezbot-by-hesa\BananaLib\RestService\LoginQueue.cs:line 137
--- End of stack trace from previous location where exception was thrown ---
   at System.Runtime.CompilerServices.TaskAwaiter.ThrowForNonSuccess(Task task)
   at System.Runtime.CompilerServices.TaskAwaiter.HandleNonSuccessAndDebuggerNotification(Task task)
   at System.Runtime.CompilerServices.ConfiguredTaskAwaitable`1.ConfiguredTaskAwaiter.GetResult()
   at BananaLib.RestService.LoginQueue.<GetAuthToken>d__70.MoveNext() in C:\Users\Hesa\Documents\ezbot-by-hesa\BananaLib\RestService\LoginQueue.cs:line 159
[12/14/2016 8:46:59 AM]    at Newtonsoft.Json.JsonTextReader.ParseValue()
   at Newtonsoft.Json.JsonTextReader.Read()
   at Newtonsoft.Json.Serialization.JsonSerializerInternalReader.ReadForType(JsonReader reader, JsonContract contract, Boolean hasConverter)
   at Newtonsoft.Json.Serialization.JsonSerializerInternalReader.Deserialize(JsonReader reader, Type objectType, Boolean checkAdditionalContent)
   at Newtonsoft.Json.JsonSerializer.DeserializeInternal(JsonReader reader, Type objectType)
   at Newtonsoft.Json.JsonConvert.DeserializeObject(String value, Type type, JsonSerializerSettings settings)
   at Newtonsoft.Json.JsonConvert.DeserializeObject[T](String value, JsonSerializerSettings settings)
   at Newtonsoft.Json.JsonConvert.DeserializeObject[T](String value)
   at BananaLib.RestService.LoginQueue.<GetAuthResult>d__68.MoveNext() in C:\Users\Hesa\Documents\ezbot-by-hesa\BananaLib\RestService\LoginQueue.cs:line 137
--- End of stack trace from previous location where exception was thrown ---
   at System.Runtime.CompilerServices.TaskAwaiter.ThrowForNonSuccess(Task task)
   at System.Runtime.CompilerServices.TaskAwaiter.HandleNonSuccessAndDebuggerNotification(Task task)
   at System.Runtime.CompilerServices.ConfiguredTaskAwaitable`1.ConfiguredTaskAwaiter.GetResult()
   at BananaLib.RestService.LoginQueue.<GetAuthToken>d__70.MoveNext() in C:\Users\Hesa\Documents\ezbot-by-hesa\BananaLib\RestService\LoginQueue.cs:line 159
[12/14/2016 8:48:06 AM]    at System.Runtime.CompilerServices.TaskAwaiter.ThrowForNonSuccess(Task task)
   at System.Runtime.CompilerServices.TaskAwaiter.HandleNonSuccessAndDebuggerNotification(Task task)
   at System.Runtime.CompilerServices.ConfiguredTaskAwaitable`1.ConfiguredTaskAwaiter.GetResult()
   at BananaLib.RestService.LoginQueue.<GetAuthResult>d__68.MoveNext() in C:\Users\Hesa\Documents\ezbot-by-hesa\BananaLib\RestService\LoginQueue.cs:line 133
--- End of stack trace from previous location where exception was thrown ---
   at System.Runtime.CompilerServices.TaskAwaiter.ThrowForNonSuccess(Task task)
   at System.Runtime.CompilerServices.TaskAwaiter.HandleNonSuccessAndDebuggerNotification(Task task)
   at System.Runtime.CompilerServices.ConfiguredTaskAwaitable`1.ConfiguredTaskAwaiter.GetResult()
   at BananaLib.RestService.LoginQueue.<GetAuthToken>d__70.MoveNext() in C:\Users\Hesa\Documents\ezbot-by-hesa\BananaLib\RestService\LoginQueue.cs:line 159
[12/14/2016 8:49:06 AM]    at System.Runtime.CompilerServices.TaskAwaiter.ThrowForNonSuccess(Task task)
   at System.Runtime.CompilerServices.TaskAwaiter.HandleNonSuccessAndDebuggerNotification(Task task)
   at System.Runtime.CompilerServices.ConfiguredTaskAwaitable`1.ConfiguredTaskAwaiter.GetResult()
   at BananaLib.RestService.LoginQueue.<GetAuthResult>d__68.MoveNext() in C:\Users\Hesa\Documents\ezbot-by-hesa\BananaLib\RestService\LoginQueue.cs:line 133
--- End of stack trace from previous location where exception was thrown ---
   at System.Runtime.CompilerServices.TaskAwaiter.ThrowForNonSuccess(Task task)
   at System.Runtime.CompilerServices.TaskAwaiter.HandleNonSuccessAndDebuggerNotification(Task task)
   at System.Runtime.CompilerServices.ConfiguredTaskAwaitable`1.ConfiguredTaskAwaiter.GetResult()
   at BananaLib.RestService.LoginQueue.<GetAuthToken>d__70.MoveNext() in C:\Users\Hesa\Documents\ezbot-by-hesa\BananaLib\RestService\LoginQueue.cs:line 159
[12/14/2016 12:40:52 PM]    at System.Runtime.CompilerServices.TaskAwaiter.ThrowForNonSuccess(Task task)
   at System.Runtime.CompilerServices.TaskAwaiter.HandleNonSuccessAndDebuggerNotification(Task task)
   at System.Runtime.CompilerServices.ConfiguredTaskAwaitable`1.ConfiguredTaskAwaiter.GetResult()
   at BananaLib.RestService.LoginQueue.<GetAuthResult>d__68.MoveNext() in C:\Users\Hesa\Documents\ezbot-by-hesa\BananaLib\RestService\LoginQueue.cs:line 133
--- End of stack trace from previous location where exception was thrown ---
   at System.Runtime.CompilerServices.TaskAwaiter.ThrowForNonSuccess(Task task)
   at System.Runtime.CompilerServices.TaskAwaiter.HandleNonSuccessAndDebuggerNotification(Task task)
   at System.Runtime.CompilerServices.ConfiguredTaskAwaitable`1.ConfiguredTaskAwaiter.GetResult()
   at BananaLib.RestService.LoginQueue.<GetAuthToken>d__70.MoveNext() in C:\Users\Hesa\Documents\ezbot-by-hesa\BananaLib\RestService\LoginQueue.cs:line 159
[12/17/2016 2:10:02 AM]    at RtmpSharp.Net.RtmpClient.<InvokeAsync>d__49`1.MoveNext() in C:\Users\Hesa\Documents\ezbot-by-hesa\rtmp-sharp\RtmpSharp\Net\RtmpClient.cs:line 390
--- End of stack trace from previous location where exception was thrown ---
   at System.Runtime.CompilerServices.TaskAwaiter.ThrowForNonSuccess(Task task)
   at System.Runtime.CompilerServices.TaskAwaiter.HandleNonSuccessAndDebuggerNotification(Task task)
   at System.Runtime.CompilerServices.ConfiguredTaskAwaitable`1.ConfiguredTaskAwaiter.GetResult()
   at BananaLib.LoLClient.<ConnectAndLogin>d__177.MoveNext() in C:\Users\Hesa\Documents\ezbot-by-hesa\BananaLib\LoLClient.cs:line 701
[12/17/2016 2:10:37 AM]    at RtmpSharp.Net.RtmpClient.<InvokeAsync>d__49`1.MoveNext() in C:\Users\Hesa\Documents\ezbot-by-hesa\rtmp-sharp\RtmpSharp\Net\RtmpClient.cs:line 390
--- End of stack trace from previous location where exception was thrown ---
   at System.Runtime.CompilerServices.TaskAwaiter.ThrowForNonSuccess(Task task)
   at System.Runtime.CompilerServices.TaskAwaiter.HandleNonSuccessAndDebuggerNotification(Task task)
   at System.Runtime.CompilerServices.ConfiguredTaskAwaitable`1.ConfiguredTaskAwaiter.GetResult()
   at BananaLib.LoLClient.<ConnectAndLogin>d__177.MoveNext() in C:\Users\Hesa\Documents\ezbot-by-hesa\BananaLib\LoLClient.cs:line 701
[12/17/2016 2:11:54 AM]    at RtmpSharp.Net.RtmpClient.<InvokeAsync>d__49`1.MoveNext() in C:\Users\Hesa\Documents\ezbot-by-hesa\rtmp-sharp\RtmpSharp\Net\RtmpClient.cs:line 390
--- End of stack trace from previous location where exception was thrown ---
   at System.Runtime.CompilerServices.TaskAwaiter.ThrowForNonSuccess(Task task)
   at System.Runtime.CompilerServices.TaskAwaiter.HandleNonSuccessAndDebuggerNotification(Task task)
   at System.Runtime.CompilerServices.ConfiguredTaskAwaitable`1.ConfiguredTaskAwaiter.GetResult()
   at BananaLib.LoLClient.<ConnectAndLogin>d__177.MoveNext() in C:\Users\Hesa\Documents\ezbot-by-hesa\BananaLib\LoLClient.cs:line 701
